%!PS-Adobe-3.0 EPSF-3.0
%%Creator: cairo 1.16.0 (https://cairographics.org)
%%CreationDate: Tue Aug  4 10:00:21 2020
%%Pages: 1
%%DocumentData: Clean7Bit
%%LanguageLevel: 2
%%BoundingBox: 0 65 384 319
%%EndComments
%%BeginProlog
50 dict begin
/q { gsave } bind def
/Q { grestore } bind def
/cm { 6 array astore concat } bind def
/w { setlinewidth } bind def
/J { setlinecap } bind def
/j { setlinejoin } bind def
/M { setmiterlimit } bind def
/d { setdash } bind def
/m { moveto } bind def
/l { lineto } bind def
/c { curveto } bind def
/h { closepath } bind def
/re { exch dup neg 3 1 roll 5 3 roll moveto 0 rlineto
      0 exch rlineto 0 rlineto closepath } bind def
/S { stroke } bind def
/f { fill } bind def
/f* { eofill } bind def
/n { newpath } bind def
/W { clip } bind def
/W* { eoclip } bind def
/BT { } bind def
/ET { } bind def
/BDC { mark 3 1 roll /BDC pdfmark } bind def
/EMC { mark /EMC pdfmark } bind def
/cairo_store_point { /cairo_point_y exch def /cairo_point_x exch def } def
/Tj { show currentpoint cairo_store_point } bind def
/TJ {
  {
    dup
    type /stringtype eq
    { show } { -0.001 mul 0 cairo_font_matrix dtransform rmoveto } ifelse
  } forall
  currentpoint cairo_store_point
} bind def
/cairo_selectfont { cairo_font_matrix aload pop pop pop 0 0 6 array astore
    cairo_font exch selectfont cairo_point_x cairo_point_y moveto } bind def
/Tf { pop /cairo_font exch def /cairo_font_matrix where
      { pop cairo_selectfont } if } bind def
/Td { matrix translate cairo_font_matrix matrix concatmatrix dup
      /cairo_font_matrix exch def dup 4 get exch 5 get cairo_store_point
      /cairo_font where { pop cairo_selectfont } if } bind def
/Tm { 2 copy 8 2 roll 6 array astore /cairo_font_matrix exch def
      cairo_store_point /cairo_font where { pop cairo_selectfont } if } bind def
/g { setgray } bind def
/rg { setrgbcolor } bind def
/d1 { setcachedevice } bind def
/cairo_data_source {
  CairoDataIndex CairoData length lt
    { CairoData CairoDataIndex get /CairoDataIndex CairoDataIndex 1 add def }
    { () } ifelse
} def
/cairo_flush_ascii85_file { cairo_ascii85_file status { cairo_ascii85_file flushfile } if } def
/cairo_image { image cairo_flush_ascii85_file } def
/cairo_imagemask { imagemask cairo_flush_ascii85_file } def
%%EndProlog
%%BeginSetup
%%EndSetup
%%Page: 1 1
%%BeginPageSetup
%%PageBoundingBox: 0 65 384 319
%%EndPageSetup
q 0 65 384 254 rectclip
1 0 0 -1 0 384 cm q
0 g
318 318.375 m 84 318.375 l 37.684 318.375 0 280.691 0 234.375 c 0 193.965
 28.457 160.477 66.062 152.297 c 67.816 104.207 107.488 65.625 156 65.625
 c 192.406 65.625 223.137 87.031 237.465 117.375 c 284.145 103.496 330.723
 139.082 329.992 187.469 c 360.68 193.121 384 220.078 384 252.375 c 384 
288.766 354.391 318.375 318 318.375 c h
156 89.625 m 117.422 89.625 86.828 122.758 90.266 161.539 c 90.855 168.176
 85.914 174.043 79.25 174.562 c 48.27 176.98 24 203.254 24 234.375 c 24 
267.461 50.914 294.375 84 294.375 c 318 294.375 l 341.16 294.375 360 275.535
 360 252.375 c 360 230.578 342.941 210.375 316.797 210.375 c 309.227 210.375
 303.527 203.43 305.035 195.988 c 313.051 156.539 271.723 125.391 236.133
 143.652 c 229.48 147.062 221.34 143.621 219.172 136.453 c 210.816 108.883
 184.84 89.625 156 89.625 c h
156 89.625 m f
Q Q
showpage
%%Trailer
end
%%EOF
