%!PS-Adobe-3.0 EPSF-3.0
%%Creator: cairo 1.16.0 (https://cairographics.org)
%%CreationDate: Tue Aug  4 10:00:21 2020
%%Pages: 1
%%DocumentData: Clean7Bit
%%LanguageLevel: 2
%%BoundingBox: 0 0 384 384
%%EndComments
%%BeginProlog
50 dict begin
/q { gsave } bind def
/Q { grestore } bind def
/cm { 6 array astore concat } bind def
/w { setlinewidth } bind def
/J { setlinecap } bind def
/j { setlinejoin } bind def
/M { setmiterlimit } bind def
/d { setdash } bind def
/m { moveto } bind def
/l { lineto } bind def
/c { curveto } bind def
/h { closepath } bind def
/re { exch dup neg 3 1 roll 5 3 roll moveto 0 rlineto
      0 exch rlineto 0 rlineto closepath } bind def
/S { stroke } bind def
/f { fill } bind def
/f* { eofill } bind def
/n { newpath } bind def
/W { clip } bind def
/W* { eoclip } bind def
/BT { } bind def
/ET { } bind def
/BDC { mark 3 1 roll /BDC pdfmark } bind def
/EMC { mark /EMC pdfmark } bind def
/cairo_store_point { /cairo_point_y exch def /cairo_point_x exch def } def
/Tj { show currentpoint cairo_store_point } bind def
/TJ {
  {
    dup
    type /stringtype eq
    { show } { -0.001 mul 0 cairo_font_matrix dtransform rmoveto } ifelse
  } forall
  currentpoint cairo_store_point
} bind def
/cairo_selectfont { cairo_font_matrix aload pop pop pop 0 0 6 array astore
    cairo_font exch selectfont cairo_point_x cairo_point_y moveto } bind def
/Tf { pop /cairo_font exch def /cairo_font_matrix where
      { pop cairo_selectfont } if } bind def
/Td { matrix translate cairo_font_matrix matrix concatmatrix dup
      /cairo_font_matrix exch def dup 4 get exch 5 get cairo_store_point
      /cairo_font where { pop cairo_selectfont } if } bind def
/Tm { 2 copy 8 2 roll 6 array astore /cairo_font_matrix exch def
      cairo_store_point /cairo_font where { pop cairo_selectfont } if } bind def
/g { setgray } bind def
/rg { setrgbcolor } bind def
/d1 { setcachedevice } bind def
/cairo_data_source {
  CairoDataIndex CairoData length lt
    { CairoData CairoDataIndex get /CairoDataIndex CairoDataIndex 1 add def }
    { () } ifelse
} def
/cairo_flush_ascii85_file { cairo_ascii85_file status { cairo_ascii85_file flushfile } if } def
/cairo_image { image cairo_flush_ascii85_file } def
/cairo_imagemask { imagemask cairo_flush_ascii85_file } def
%%EndProlog
%%BeginSetup
%%EndSetup
%%Page: 1 1
%%BeginPageSetup
%%PageBoundingBox: 0 0 384 384
%%EndPageSetup
q 0 0 384 384 rectclip
1 0 0 -1 0 384 cm q
0 g
317.754 252.254 m 84.211 252.254 l 37.984 252.254 0.375 214.648 0.375 168.422
 c 0.375 128.09 28.777 94.664 66.309 86.504 c 68.062 38.508 107.652 0 156.07
 0 c 192.406 0 223.074 21.367 237.375 51.648 c 283.965 37.797 330.453 73.312
 329.723 121.605 c 360.352 127.25 383.625 154.148 383.625 186.387 c 383.625
 222.707 354.074 252.254 317.754 252.254 c h
156.07 23.953 m 117.57 23.953 87.035 57.023 90.465 95.727 c 91.055 102.352
 86.121 108.203 79.469 108.723 c 48.551 111.141 24.328 137.359 24.328 168.422
 c 24.328 201.438 51.191 228.305 84.211 228.305 c 317.754 228.305 l 340.867
 228.305 359.672 209.5 359.672 186.387 c 359.672 164.633 342.648 144.469
 316.555 144.469 c 308.996 144.469 303.309 137.535 304.816 130.105 c 312.812
 90.738 271.566 59.648 236.047 77.871 c 229.406 81.281 221.285 77.844 219.117
 70.691 c 210.781 43.172 184.852 23.953 156.07 23.953 c h
156.07 23.953 m f
233.91 342.082 m 225.109 342.082 219.199 332.762 223.207 324.746 c 247.16
 276.84 l 250.117 270.926 257.312 268.527 263.227 271.484 c 269.145 274.441
 271.543 281.637 268.582 287.551 c 244.629 335.457 l 242.531 339.656 238.301
 342.082 233.91 342.082 c h
233.91 342.082 m f
341.699 342.082 m 332.898 342.082 326.988 332.762 330.996 324.746 c 354.949
 276.84 l 357.906 270.926 365.102 268.527 371.016 271.484 c 376.934 274.441
 379.328 281.637 376.371 287.551 c 352.418 335.457 l 350.32 339.656 346.09
 342.082 341.699 342.082 c h
341.699 342.082 m f
126.121 342.082 m 117.32 342.082 111.41 332.762 115.418 324.746 c 139.371
 276.84 l 142.328 270.926 149.523 268.527 155.438 271.484 c 161.355 274.441
 163.754 281.637 160.793 287.551 c 136.84 335.457 l 134.742 339.656 130.512
 342.082 126.121 342.082 c h
126.121 342.082 m f
18.332 342.082 m 9.531 342.082 3.621 332.762 7.629 324.746 c 31.582 276.84
 l 34.539 270.926 41.734 268.527 47.648 271.484 c 53.566 274.441 55.965 
281.637 53.008 287.551 c 29.055 335.457 l 26.953 339.656 22.723 342.082 
18.332 342.082 c h
18.332 342.082 m f
162.051 384 m 153.25 384 147.34 374.68 151.348 366.664 c 175.301 318.758
 l 178.258 312.844 185.453 310.445 191.367 313.402 c 197.285 316.359 199.684
 323.555 196.723 329.469 c 172.77 377.375 l 170.672 381.574 166.441 384 
162.051 384 c h
162.051 384 m f
269.84 384 m 261.039 384 255.129 374.68 259.137 366.664 c 283.09 318.758
 l 286.047 312.844 293.242 310.445 299.156 313.402 c 305.074 316.359 307.469
 323.555 304.512 329.469 c 280.559 377.375 l 278.461 381.574 274.23 384 
269.84 384 c h
269.84 384 m f
54.262 384 m 45.461 384 39.551 374.68 43.559 366.664 c 67.512 318.758 l
 70.469 312.844 77.664 310.445 83.578 313.402 c 89.496 316.359 91.895 323.555
 88.934 329.469 c 64.984 377.375 l 62.883 381.574 58.652 384 54.262 384 
c h
54.262 384 m f
Q Q
showpage
%%Trailer
end
%%EOF
