%!PS-Adobe-3.0 EPSF-3.0
%%Creator: cairo 1.16.0 (https://cairographics.org)
%%CreationDate: Tue Aug  4 10:00:22 2020
%%Pages: 1
%%DocumentData: Clean7Bit
%%LanguageLevel: 2
%%BoundingBox: 0 0 384 384
%%EndComments
%%BeginProlog
50 dict begin
/q { gsave } bind def
/Q { grestore } bind def
/cm { 6 array astore concat } bind def
/w { setlinewidth } bind def
/J { setlinecap } bind def
/j { setlinejoin } bind def
/M { setmiterlimit } bind def
/d { setdash } bind def
/m { moveto } bind def
/l { lineto } bind def
/c { curveto } bind def
/h { closepath } bind def
/re { exch dup neg 3 1 roll 5 3 roll moveto 0 rlineto
      0 exch rlineto 0 rlineto closepath } bind def
/S { stroke } bind def
/f { fill } bind def
/f* { eofill } bind def
/n { newpath } bind def
/W { clip } bind def
/W* { eoclip } bind def
/BT { } bind def
/ET { } bind def
/BDC { mark 3 1 roll /BDC pdfmark } bind def
/EMC { mark /EMC pdfmark } bind def
/cairo_store_point { /cairo_point_y exch def /cairo_point_x exch def } def
/Tj { show currentpoint cairo_store_point } bind def
/TJ {
  {
    dup
    type /stringtype eq
    { show } { -0.001 mul 0 cairo_font_matrix dtransform rmoveto } ifelse
  } forall
  currentpoint cairo_store_point
} bind def
/cairo_selectfont { cairo_font_matrix aload pop pop pop 0 0 6 array astore
    cairo_font exch selectfont cairo_point_x cairo_point_y moveto } bind def
/Tf { pop /cairo_font exch def /cairo_font_matrix where
      { pop cairo_selectfont } if } bind def
/Td { matrix translate cairo_font_matrix matrix concatmatrix dup
      /cairo_font_matrix exch def dup 4 get exch 5 get cairo_store_point
      /cairo_font where { pop cairo_selectfont } if } bind def
/Tm { 2 copy 8 2 roll 6 array astore /cairo_font_matrix exch def
      cairo_store_point /cairo_font where { pop cairo_selectfont } if } bind def
/g { setgray } bind def
/rg { setrgbcolor } bind def
/d1 { setcachedevice } bind def
/cairo_data_source {
  CairoDataIndex CairoData length lt
    { CairoData CairoDataIndex get /CairoDataIndex CairoDataIndex 1 add def }
    { () } ifelse
} def
/cairo_flush_ascii85_file { cairo_ascii85_file status { cairo_ascii85_file flushfile } if } def
/cairo_image { image cairo_flush_ascii85_file } def
/cairo_imagemask { imagemask cairo_flush_ascii85_file } def
%%EndProlog
%%BeginSetup
%%EndSetup
%%Page: 1 1
%%BeginPageSetup
%%PageBoundingBox: 0 0 384 384
%%EndPageSetup
q 0 0 384 384 rectclip
1 0 0 -1 0 384 cm q
0 g
317.754 252.258 m 84.211 252.258 l 37.984 252.258 0.375 214.648 0.375 168.422
 c 0.375 128.09 28.777 94.664 66.305 86.504 c 68.059 38.508 107.652 0 156.07
 0 c 192.406 0 223.074 21.367 237.375 51.648 c 283.723 37.871 330.406 73.004
 329.723 121.605 c 360.352 127.25 383.625 154.148 383.625 186.387 c 383.625
 222.707 354.074 252.258 317.754 252.258 c h
156.07 23.953 m 117.566 23.953 87.035 57.023 90.465 95.727 c 91.051 102.352
 86.121 108.203 79.469 108.723 c 48.547 111.141 24.328 137.363 24.328 168.422
 c 24.328 201.441 51.191 228.305 84.211 228.305 c 317.754 228.305 l 340.867
 228.305 359.672 209.5 359.672 186.387 c 359.672 164.613 342.625 144.469
 316.555 144.469 c 308.996 144.469 303.309 137.535 304.816 130.109 c 312.809
 90.738 271.574 59.645 236.047 77.875 c 229.395 81.285 221.281 77.832 219.117
 70.691 c 210.781 43.172 184.852 23.953 156.07 23.953 c h
156.07 23.953 m f
203.977 288.188 m 203.977 294.801 198.613 300.164 192 300.164 c 185.387
 300.164 180.023 294.801 180.023 288.188 c 180.023 281.574 185.387 276.211
 192 276.211 c 198.613 276.211 203.977 281.574 203.977 288.188 c h
203.977 288.188 m f
156.07 330.105 m 156.07 336.719 150.707 342.082 144.094 342.082 c 137.48
 342.082 132.117 336.719 132.117 330.105 c 132.117 323.492 137.48 318.129
 144.094 318.129 c 150.707 318.129 156.07 323.492 156.07 330.105 c h
156.07 330.105 m f
60.258 330.105 m 60.258 336.719 54.895 342.082 48.281 342.082 c 41.668 
342.082 36.305 336.719 36.305 330.105 c 36.305 323.492 41.668 318.129 48.281
 318.129 c 54.895 318.129 60.258 323.492 60.258 330.105 c h
60.258 330.105 m f
251.883 330.105 m 251.883 336.719 246.52 342.082 239.906 342.082 c 233.293
 342.082 227.93 336.719 227.93 330.105 c 227.93 323.492 233.293 318.129 
239.906 318.129 c 246.52 318.129 251.883 323.492 251.883 330.105 c h
251.883 330.105 m f
347.695 330.105 m 347.695 336.719 342.332 342.082 335.719 342.082 c 329.105
 342.082 323.742 336.719 323.742 330.105 c 323.742 323.492 329.105 318.129
 335.719 318.129 c 342.332 318.129 347.695 323.492 347.695 330.105 c h
347.695 330.105 m f
299.789 288.188 m 299.789 294.801 294.426 300.164 287.812 300.164 c 281.199
 300.164 275.836 294.801 275.836 288.188 c 275.836 281.574 281.199 276.211
 287.812 276.211 c 294.426 276.211 299.789 281.574 299.789 288.188 c h
299.789 288.188 m f
108.164 288.188 m 108.164 294.801 102.801 300.164 96.188 300.164 c 89.574
 300.164 84.211 294.801 84.211 288.188 c 84.211 281.574 89.574 276.211 96.188
 276.211 c 102.801 276.211 108.164 281.574 108.164 288.188 c h
108.164 288.188 m f
203.977 372.023 m 203.977 378.637 198.613 384 192 384 c 185.387 384 180.023
 378.637 180.023 372.023 c 180.023 365.41 185.387 360.047 192 360.047 c 
198.613 360.047 203.977 365.41 203.977 372.023 c h
203.977 372.023 m f
299.789 372.023 m 299.789 378.637 294.426 384 287.812 384 c 281.199 384
 275.836 378.637 275.836 372.023 c 275.836 365.41 281.199 360.047 287.812
 360.047 c 294.426 360.047 299.789 365.41 299.789 372.023 c h
299.789 372.023 m f
108.164 372.023 m 108.164 378.637 102.801 384 96.188 384 c 89.574 384 84.211
 378.637 84.211 372.023 c 84.211 365.41 89.574 360.047 96.188 360.047 c 
102.801 360.047 108.164 365.41 108.164 372.023 c h
108.164 372.023 m f
Q Q
showpage
%%Trailer
end
%%EOF
