%!PS-Adobe-3.0 EPSF-3.0
%%Creator: cairo 1.16.0 (https://cairographics.org)
%%CreationDate: Tue Aug  4 10:00:23 2020
%%Pages: 1
%%DocumentData: Clean7Bit
%%LanguageLevel: 2
%%BoundingBox: 0 89 384 295
%%EndComments
%%BeginProlog
50 dict begin
/q { gsave } bind def
/Q { grestore } bind def
/cm { 6 array astore concat } bind def
/w { setlinewidth } bind def
/J { setlinecap } bind def
/j { setlinejoin } bind def
/M { setmiterlimit } bind def
/d { setdash } bind def
/m { moveto } bind def
/l { lineto } bind def
/c { curveto } bind def
/h { closepath } bind def
/re { exch dup neg 3 1 roll 5 3 roll moveto 0 rlineto
      0 exch rlineto 0 rlineto closepath } bind def
/S { stroke } bind def
/f { fill } bind def
/f* { eofill } bind def
/n { newpath } bind def
/W { clip } bind def
/W* { eoclip } bind def
/BT { } bind def
/ET { } bind def
/BDC { mark 3 1 roll /BDC pdfmark } bind def
/EMC { mark /EMC pdfmark } bind def
/cairo_store_point { /cairo_point_y exch def /cairo_point_x exch def } def
/Tj { show currentpoint cairo_store_point } bind def
/TJ {
  {
    dup
    type /stringtype eq
    { show } { -0.001 mul 0 cairo_font_matrix dtransform rmoveto } ifelse
  } forall
  currentpoint cairo_store_point
} bind def
/cairo_selectfont { cairo_font_matrix aload pop pop pop 0 0 6 array astore
    cairo_font exch selectfont cairo_point_x cairo_point_y moveto } bind def
/Tf { pop /cairo_font exch def /cairo_font_matrix where
      { pop cairo_selectfont } if } bind def
/Td { matrix translate cairo_font_matrix matrix concatmatrix dup
      /cairo_font_matrix exch def dup 4 get exch 5 get cairo_store_point
      /cairo_font where { pop cairo_selectfont } if } bind def
/Tm { 2 copy 8 2 roll 6 array astore /cairo_font_matrix exch def
      cairo_store_point /cairo_font where { pop cairo_selectfont } if } bind def
/g { setgray } bind def
/rg { setrgbcolor } bind def
/d1 { setcachedevice } bind def
/cairo_data_source {
  CairoDataIndex CairoData length lt
    { CairoData CairoDataIndex get /CairoDataIndex CairoDataIndex 1 add def }
    { () } ifelse
} def
/cairo_flush_ascii85_file { cairo_ascii85_file status { cairo_ascii85_file flushfile } if } def
/cairo_image { image cairo_flush_ascii85_file } def
/cairo_imagemask { imagemask cairo_flush_ascii85_file } def
%%EndProlog
%%BeginSetup
%%EndSetup
%%Page: 1 1
%%BeginPageSetup
%%PageBoundingBox: 0 89 384 295
%%EndPageSetup
q 0 89 384 206 rectclip
1 0 0 -1 0 384 cm q
0 g
327.766 146.258 m 252.734 71.223 131.277 71.215 56.234 146.258 c 19.973
 182.52 0 230.738 0 282.023 c 0 288.648 5.371 294.023 12 294.023 c 144 294.023
 l 150.629 294.023 156 288.648 156 282.023 c 156 262.172 172.148 246.023
 192 246.023 c 211.852 246.023 228 262.172 228 282.023 c 228 288.648 233.371
 294.023 240 294.023 c 372 294.023 l 378.629 294.023 384 288.648 384 282.023
 c 384 230.738 364.027 182.52 327.766 146.258 c h
192 114.023 m 280.602 114.023 353.391 182.965 359.566 270.023 c 341.52 
270.023 l 335.387 192.902 270.672 132.023 192 132.023 c 113.328 132.023 
48.613 192.902 42.48 270.023 c 24.434 270.023 l 30.609 182.965 103.398 114.023
 192 114.023 c h
317.426 270.023 m 299.332 270.023 l 293.34 216.098 247.496 174.023 192 
174.023 c 136.504 174.023 90.66 216.098 84.672 270.023 c 66.574 270.023 
l 72.637 206.152 126.57 156.023 192 156.023 c 257.43 156.023 311.363 206.152
 317.426 270.023 c h
192 222.023 m 163.023 222.023 138.781 242.668 133.207 270.023 c 108.859
 270.023 l 114.703 229.367 149.758 198.023 192 198.023 c 234.242 198.023
 269.297 229.367 275.141 270.023 c 250.793 270.023 l 245.219 242.668 220.977
 222.023 192 222.023 c h
192 222.023 m f
Q Q
showpage
%%Trailer
end
%%EOF
