%!PS-Adobe-3.0 EPSF-3.0
%%Creator: cairo 1.16.0 (https://cairographics.org)
%%CreationDate: Tue Aug  4 10:00:23 2020
%%Pages: 1
%%DocumentData: Clean7Bit
%%LanguageLevel: 2
%%BoundingBox: 0 0 384 384
%%EndComments
%%BeginProlog
50 dict begin
/q { gsave } bind def
/Q { grestore } bind def
/cm { 6 array astore concat } bind def
/w { setlinewidth } bind def
/J { setlinecap } bind def
/j { setlinejoin } bind def
/M { setmiterlimit } bind def
/d { setdash } bind def
/m { moveto } bind def
/l { lineto } bind def
/c { curveto } bind def
/h { closepath } bind def
/re { exch dup neg 3 1 roll 5 3 roll moveto 0 rlineto
      0 exch rlineto 0 rlineto closepath } bind def
/S { stroke } bind def
/f { fill } bind def
/f* { eofill } bind def
/n { newpath } bind def
/W { clip } bind def
/W* { eoclip } bind def
/BT { } bind def
/ET { } bind def
/BDC { mark 3 1 roll /BDC pdfmark } bind def
/EMC { mark /EMC pdfmark } bind def
/cairo_store_point { /cairo_point_y exch def /cairo_point_x exch def } def
/Tj { show currentpoint cairo_store_point } bind def
/TJ {
  {
    dup
    type /stringtype eq
    { show } { -0.001 mul 0 cairo_font_matrix dtransform rmoveto } ifelse
  } forall
  currentpoint cairo_store_point
} bind def
/cairo_selectfont { cairo_font_matrix aload pop pop pop 0 0 6 array astore
    cairo_font exch selectfont cairo_point_x cairo_point_y moveto } bind def
/Tf { pop /cairo_font exch def /cairo_font_matrix where
      { pop cairo_selectfont } if } bind def
/Td { matrix translate cairo_font_matrix matrix concatmatrix dup
      /cairo_font_matrix exch def dup 4 get exch 5 get cairo_store_point
      /cairo_font where { pop cairo_selectfont } if } bind def
/Tm { 2 copy 8 2 roll 6 array astore /cairo_font_matrix exch def
      cairo_store_point /cairo_font where { pop cairo_selectfont } if } bind def
/g { setgray } bind def
/rg { setrgbcolor } bind def
/d1 { setcachedevice } bind def
/cairo_data_source {
  CairoDataIndex CairoData length lt
    { CairoData CairoDataIndex get /CairoDataIndex CairoDataIndex 1 add def }
    { () } ifelse
} def
/cairo_flush_ascii85_file { cairo_ascii85_file status { cairo_ascii85_file flushfile } if } def
/cairo_image { image cairo_flush_ascii85_file } def
/cairo_imagemask { imagemask cairo_flush_ascii85_file } def
%%EndProlog
%%BeginSetup
%%EndSetup
%%Page: 1 1
%%BeginPageSetup
%%PageBoundingBox: 0 0 384 384
%%EndPageSetup
q 0 0 384 384 rectclip
1 0 0 -1 0 384 cm q
0 g
192 300 m 132.449 300 84 251.551 84 192 c 84 132.449 132.449 84 192 84 
c 251.551 84 300 132.449 300 192 c 300 251.551 251.551 300 192 300 c h
192 108 m 145.684 108 108 145.684 108 192 c 108 238.316 145.684 276 192
 276 c 238.316 276 276 238.316 276 192 c 276 145.684 238.316 108 192 108
 c h
192 108 m f
192 60 m 185.371 60 180 54.629 180 48 c 180 12 l 180 5.371 185.371 0 192
 0 c 198.629 0 204 5.371 204 12 c 204 48 l 204 54.629 198.629 60 192 60 
c h
192 60 m f
192 384 m 185.371 384 180 378.629 180 372 c 180 336 l 180 329.371 185.371
 324 192 324 c 198.629 324 204 329.371 204 336 c 204 372 l 204 378.629 198.629
 384 192 384 c h
192 384 m f
372 204 m 336 204 l 329.371 204 324 198.629 324 192 c 324 185.371 329.371
 180 336 180 c 372 180 l 378.629 180 384 185.371 384 192 c 384 198.629 378.629
 204 372 204 c h
372 204 m f
48 204 m 12 204 l 5.371 204 0 198.629 0 192 c 0 185.371 5.371 180 12 180
 c 48 180 l 54.629 180 60 185.371 60 192 c 60 198.629 54.629 204 48 204 
c h
48 204 m f
293.824 102.176 m 283.23 102.176 277.758 89.273 285.34 81.691 c 310.793
 56.234 l 315.48 51.551 323.078 51.547 327.766 56.234 c 332.453 60.922 332.453
 68.52 327.766 73.207 c 302.309 98.66 l 299.965 101.004 296.895 102.176 
293.824 102.176 c h
293.824 102.176 m f
64.719 331.281 m 54.125 331.281 48.652 318.375 56.234 310.793 c 81.691 
285.34 l 86.379 280.652 93.977 280.652 98.66 285.34 c 103.348 290.023 103.348
 297.621 98.66 302.309 c 73.207 327.766 l 70.863 330.105 67.793 331.281 
64.719 331.281 c h
64.719 331.281 m f
319.281 331.281 m 316.207 331.281 313.137 330.109 310.793 327.766 c 285.34
 302.309 l 280.652 297.621 280.652 290.023 285.34 285.34 c 290.023 280.652
 297.625 280.652 302.309 285.34 c 327.766 310.793 l 335.348 318.375 329.875
 331.281 319.281 331.281 c h
319.281 331.281 m f
90.176 102.176 m 87.105 102.176 84.035 101.004 81.691 98.66 c 56.234 73.207
 l 51.547 68.52 51.547 60.922 56.234 56.234 c 60.922 51.551 68.52 51.551
 73.207 56.234 c 98.66 81.691 l 106.242 89.273 100.77 102.176 90.176 102.176
 c h
90.176 102.176 m f
Q Q
showpage
%%Trailer
end
%%EOF
