%!PS-Adobe-3.0 EPSF-3.0
%%Creator: cairo 1.16.0 (https://cairographics.org)
%%CreationDate: Tue Aug  4 10:00:24 2020
%%Pages: 1
%%DocumentData: Clean7Bit
%%LanguageLevel: 2
%%BoundingBox: 0 0 384 384
%%EndComments
%%BeginProlog
50 dict begin
/q { gsave } bind def
/Q { grestore } bind def
/cm { 6 array astore concat } bind def
/w { setlinewidth } bind def
/J { setlinecap } bind def
/j { setlinejoin } bind def
/M { setmiterlimit } bind def
/d { setdash } bind def
/m { moveto } bind def
/l { lineto } bind def
/c { curveto } bind def
/h { closepath } bind def
/re { exch dup neg 3 1 roll 5 3 roll moveto 0 rlineto
      0 exch rlineto 0 rlineto closepath } bind def
/S { stroke } bind def
/f { fill } bind def
/f* { eofill } bind def
/n { newpath } bind def
/W { clip } bind def
/W* { eoclip } bind def
/BT { } bind def
/ET { } bind def
/BDC { mark 3 1 roll /BDC pdfmark } bind def
/EMC { mark /EMC pdfmark } bind def
/cairo_store_point { /cairo_point_y exch def /cairo_point_x exch def } def
/Tj { show currentpoint cairo_store_point } bind def
/TJ {
  {
    dup
    type /stringtype eq
    { show } { -0.001 mul 0 cairo_font_matrix dtransform rmoveto } ifelse
  } forall
  currentpoint cairo_store_point
} bind def
/cairo_selectfont { cairo_font_matrix aload pop pop pop 0 0 6 array astore
    cairo_font exch selectfont cairo_point_x cairo_point_y moveto } bind def
/Tf { pop /cairo_font exch def /cairo_font_matrix where
      { pop cairo_selectfont } if } bind def
/Td { matrix translate cairo_font_matrix matrix concatmatrix dup
      /cairo_font_matrix exch def dup 4 get exch 5 get cairo_store_point
      /cairo_font where { pop cairo_selectfont } if } bind def
/Tm { 2 copy 8 2 roll 6 array astore /cairo_font_matrix exch def
      cairo_store_point /cairo_font where { pop cairo_selectfont } if } bind def
/g { setgray } bind def
/rg { setrgbcolor } bind def
/d1 { setcachedevice } bind def
/cairo_data_source {
  CairoDataIndex CairoData length lt
    { CairoData CairoDataIndex get /CairoDataIndex CairoDataIndex 1 add def }
    { () } ifelse
} def
/cairo_flush_ascii85_file { cairo_ascii85_file status { cairo_ascii85_file flushfile } if } def
/cairo_image { image cairo_flush_ascii85_file } def
/cairo_imagemask { imagemask cairo_flush_ascii85_file } def
%%EndProlog
%%BeginSetup
%%EndSetup
%%Page: 1 1
%%BeginPageSetup
%%PageBoundingBox: 0 0 384 384
%%EndPageSetup
q 0 0 384 384 rectclip
1 0 0 -1 0 384 cm q
0 g
192 384 m 85.887 384 0 298.129 0 192 c 0 87.797 82.438 4.543 183.602 0.184
 c 188.98 -0.043 193.852 3.328 195.523 8.445 c 197.195 13.559 195.258 19.164
 190.781 22.152 c 153.977 46.734 132 87.801 132 132 c 132 204.785 191.215
 264 264 264 c 300.098 264 333.797 249.707 358.887 223.754 c 362.629 219.883
 368.492 218.98 373.227 221.539 c 377.961 224.105 380.41 229.504 379.215
 234.754 c 359.621 320.926 282.516 384 192 384 c h
145.547 30.453 m 74.957 50.555 24 115.312 24 192 c 24 284.637 99.363 360
 192 360 c 257.391 360 314.828 323.18 342.57 266.871 c 319.016 280.66 292.121
 288 264 288 c 177.98 288 108 218.02 108 132 c 108 94.223 121.582 58.387
 145.547 30.453 c h
145.547 30.453 m f
312 144 m 305.371 144 300 138.629 300 132 c 300 105.531 278.469 84 252 
84 c 245.371 84 240 78.629 240 72 c 240 65.371 245.371 60 252 60 c 278.469
 60 300 38.469 300 12 c 300 5.371 305.371 0 312 0 c 318.629 0 324 5.371 
324 12 c 324 38.469 345.531 60 372 60 c 378.629 60 384 65.371 384 72 c 384
 78.629 378.629 84 372 84 c 345.531 84 324 105.531 324 132 c 324 138.629
 318.629 144 312 144 c h
291.762 72 m 299.777 77.332 306.668 84.223 312 92.238 c 317.332 84.223 
324.223 77.332 332.238 72 c 324.223 66.668 317.332 59.777 312 51.762 c 306.668
 59.777 299.777 66.668 291.762 72 c h
291.762 72 m f
228 234.75 m 221.371 234.75 216 229.379 216 222.75 c 216 206.207 202.543
 192.75 186 192.75 c 179.371 192.75 174 187.379 174 180.75 c 174 174.121
 179.371 168.75 186 168.75 c 202.543 168.75 216 155.293 216 138.75 c 216
 132.121 221.371 126.75 228 126.75 c 234.629 126.75 240 132.121 240 138.75
 c 240 155.293 253.457 168.75 270 168.75 c 276.629 168.75 282 174.121 282
 180.75 c 282 187.379 276.629 192.75 270 192.75 c 253.457 192.75 240 206.207
 240 222.75 c 240 229.379 234.629 234.75 228 234.75 c h
219.906 180.75 m 222.879 183.156 225.594 185.871 228 188.844 c 230.406 
185.871 233.121 183.156 236.094 180.75 c 233.121 178.344 230.406 175.629
 228 172.656 c 225.594 175.629 222.879 178.344 219.906 180.75 c h
219.906 180.75 m f
Q Q
showpage
%%Trailer
end
%%EOF
