%!PS-Adobe-3.0 EPSF-3.0
%%Creator: cairo 1.16.0 (https://cairographics.org)
%%CreationDate: Tue Aug  4 10:00:25 2020
%%Pages: 1
%%DocumentData: Clean7Bit
%%LanguageLevel: 2
%%BoundingBox: 0 0 384 384
%%EndComments
%%BeginProlog
50 dict begin
/q { gsave } bind def
/Q { grestore } bind def
/cm { 6 array astore concat } bind def
/w { setlinewidth } bind def
/J { setlinecap } bind def
/j { setlinejoin } bind def
/M { setmiterlimit } bind def
/d { setdash } bind def
/m { moveto } bind def
/l { lineto } bind def
/c { curveto } bind def
/h { closepath } bind def
/re { exch dup neg 3 1 roll 5 3 roll moveto 0 rlineto
      0 exch rlineto 0 rlineto closepath } bind def
/S { stroke } bind def
/f { fill } bind def
/f* { eofill } bind def
/n { newpath } bind def
/W { clip } bind def
/W* { eoclip } bind def
/BT { } bind def
/ET { } bind def
/BDC { mark 3 1 roll /BDC pdfmark } bind def
/EMC { mark /EMC pdfmark } bind def
/cairo_store_point { /cairo_point_y exch def /cairo_point_x exch def } def
/Tj { show currentpoint cairo_store_point } bind def
/TJ {
  {
    dup
    type /stringtype eq
    { show } { -0.001 mul 0 cairo_font_matrix dtransform rmoveto } ifelse
  } forall
  currentpoint cairo_store_point
} bind def
/cairo_selectfont { cairo_font_matrix aload pop pop pop 0 0 6 array astore
    cairo_font exch selectfont cairo_point_x cairo_point_y moveto } bind def
/Tf { pop /cairo_font exch def /cairo_font_matrix where
      { pop cairo_selectfont } if } bind def
/Td { matrix translate cairo_font_matrix matrix concatmatrix dup
      /cairo_font_matrix exch def dup 4 get exch 5 get cairo_store_point
      /cairo_font where { pop cairo_selectfont } if } bind def
/Tm { 2 copy 8 2 roll 6 array astore /cairo_font_matrix exch def
      cairo_store_point /cairo_font where { pop cairo_selectfont } if } bind def
/g { setgray } bind def
/rg { setrgbcolor } bind def
/d1 { setcachedevice } bind def
/cairo_data_source {
  CairoDataIndex CairoData length lt
    { CairoData CairoDataIndex get /CairoDataIndex CairoDataIndex 1 add def }
    { () } ifelse
} def
/cairo_flush_ascii85_file { cairo_ascii85_file status { cairo_ascii85_file flushfile } if } def
/cairo_image { image cairo_flush_ascii85_file } def
/cairo_imagemask { imagemask cairo_flush_ascii85_file } def
%%EndProlog
%%BeginSetup
%%EndSetup
%%Page: 1 1
%%BeginPageSetup
%%PageBoundingBox: 0 0 384 384
%%EndPageSetup
q 0 0 384 384 rectclip
1 0 0 -1 0 384 cm q
0 g
84 284.512 m 84 132 l 84 125.371 78.629 120 72 120 c 65.371 120 60 125.371
 60 132 c 60 284.512 l 49.414 289.152 42 299.723 42 312 c 42 328.543 55.457
 342 72 342 c 88.543 342 102 328.543 102 312 c 102 299.723 94.586 289.152
 84 284.512 c h
84 284.512 m f
120 258.328 m 120 48 l 120 21.531 98.469 0 72 0 c 45.531 0 24 21.531 24
 48 c 24 258.328 l 8.676 271.98 0 291.219 0 312 c 0 351.703 32.297 384 72
 384 c 111.703 384 144 351.703 144 312 c 144 291.219 135.324 271.98 120 
258.328 c h
72 360 m 45.531 360 24 338.469 24 312 c 24 296.762 31 282.762 43.207 273.594
 c 46.227 271.328 48 267.773 48 264 c 48 48 l 48 34.766 58.766 24 72 24 
c 85.234 24 96 34.766 96 48 c 96 264 l 96 267.773 97.773 271.328 100.793
 273.594 c 113 282.762 120 296.762 120 312 c 120 338.469 98.469 360 72 360
 c h
72 360 m f
264 60 m 230.914 60 204 86.914 204 120 c 204 153.086 230.914 180 264 180
 c 297.086 180 324 153.086 324 120 c 324 86.914 297.086 60 264 60 c h
264 156 m 244.148 156 228 139.852 228 120 c 228 100.148 244.148 84 264 
84 c 283.852 84 300 100.148 300 120 c 300 139.852 283.852 156 264 156 c 
h
264 156 m f
264 39.75 m 270.629 39.75 276 34.379 276 27.75 c 276 12 l 276 5.371 270.629
 0 264 0 c 257.371 0 252 5.371 252 12 c 252 27.75 l 252 34.379 257.371 39.75
 264 39.75 c h
264 39.75 m f
264 200.25 m 257.371 200.25 252 205.621 252 212.25 c 252 228 l 252 234.629
 257.371 240 264 240 c 270.629 240 276 234.629 276 228 c 276 212.25 l 276
 205.621 270.629 200.25 264 200.25 c h
264 200.25 m f
183.75 120 m 183.75 113.371 178.379 108 171.75 108 c 156 108 l 149.371 
108 144 113.371 144 120 c 144 126.629 149.371 132 156 132 c 171.75 132 l
 178.379 132 183.75 126.629 183.75 120 c h
183.75 120 m f
372 108 m 356.25 108 l 349.621 108 344.25 113.371 344.25 120 c 344.25 126.629
 349.621 132 356.25 132 c 372 132 l 378.629 132 384 126.629 384 120 c 384
 113.371 378.629 108 372 108 c h
372 108 m f
190.059 63.027 m 194.742 67.715 202.34 67.715 207.027 63.027 c 211.715 
58.34 211.715 50.742 207.027 46.059 c 196.117 35.148 l 191.43 30.461 183.832
 30.461 179.148 35.148 c 174.461 39.832 174.461 47.43 179.148 52.117 c h
190.059 63.027 m f
337.941 176.973 m 333.258 172.285 325.66 172.285 320.973 176.973 c 316.285
 181.66 316.285 189.258 320.973 193.941 c 331.883 204.852 l 334.227 207.195
 337.297 208.367 340.367 208.367 c 350.961 208.367 356.434 195.465 348.852
 187.883 c h
337.941 176.973 m f
190.059 176.973 m 179.148 187.883 l 174.461 192.57 174.461 200.168 179.148
 204.852 c 183.832 209.539 191.43 209.539 196.117 204.852 c 207.027 193.941
 l 211.715 189.258 211.715 181.66 207.027 176.973 c 202.34 172.285 194.742
 172.285 190.059 176.973 c h
190.059 176.973 m f
329.457 66.543 m 332.527 66.543 335.598 65.371 337.941 63.027 c 348.852
 52.117 l 353.539 47.43 353.539 39.832 348.852 35.148 c 344.164 30.461 336.566
 30.461 331.883 35.148 c 320.973 46.059 l 313.391 53.637 318.863 66.543 
329.457 66.543 c h
329.457 66.543 m f
Q Q
showpage
%%Trailer
end
%%EOF
