%!PS-Adobe-3.0 EPSF-3.0
%%Creator: cairo 1.16.0 (https://cairographics.org)
%%CreationDate: Tue Aug  4 10:00:27 2020
%%Pages: 1
%%DocumentData: Clean7Bit
%%LanguageLevel: 2
%%BoundingBox: 0 0 384 384
%%EndComments
%%BeginProlog
50 dict begin
/q { gsave } bind def
/Q { grestore } bind def
/cm { 6 array astore concat } bind def
/w { setlinewidth } bind def
/J { setlinecap } bind def
/j { setlinejoin } bind def
/M { setmiterlimit } bind def
/d { setdash } bind def
/m { moveto } bind def
/l { lineto } bind def
/c { curveto } bind def
/h { closepath } bind def
/re { exch dup neg 3 1 roll 5 3 roll moveto 0 rlineto
      0 exch rlineto 0 rlineto closepath } bind def
/S { stroke } bind def
/f { fill } bind def
/f* { eofill } bind def
/n { newpath } bind def
/W { clip } bind def
/W* { eoclip } bind def
/BT { } bind def
/ET { } bind def
/BDC { mark 3 1 roll /BDC pdfmark } bind def
/EMC { mark /EMC pdfmark } bind def
/cairo_store_point { /cairo_point_y exch def /cairo_point_x exch def } def
/Tj { show currentpoint cairo_store_point } bind def
/TJ {
  {
    dup
    type /stringtype eq
    { show } { -0.001 mul 0 cairo_font_matrix dtransform rmoveto } ifelse
  } forall
  currentpoint cairo_store_point
} bind def
/cairo_selectfont { cairo_font_matrix aload pop pop pop 0 0 6 array astore
    cairo_font exch selectfont cairo_point_x cairo_point_y moveto } bind def
/Tf { pop /cairo_font exch def /cairo_font_matrix where
      { pop cairo_selectfont } if } bind def
/Td { matrix translate cairo_font_matrix matrix concatmatrix dup
      /cairo_font_matrix exch def dup 4 get exch 5 get cairo_store_point
      /cairo_font where { pop cairo_selectfont } if } bind def
/Tm { 2 copy 8 2 roll 6 array astore /cairo_font_matrix exch def
      cairo_store_point /cairo_font where { pop cairo_selectfont } if } bind def
/g { setgray } bind def
/rg { setrgbcolor } bind def
/d1 { setcachedevice } bind def
/cairo_data_source {
  CairoDataIndex CairoData length lt
    { CairoData CairoDataIndex get /CairoDataIndex CairoDataIndex 1 add def }
    { () } ifelse
} def
/cairo_flush_ascii85_file { cairo_ascii85_file status { cairo_ascii85_file flushfile } if } def
/cairo_image { image cairo_flush_ascii85_file } def
/cairo_imagemask { imagemask cairo_flush_ascii85_file } def
%%EndProlog
%%BeginSetup
%%EndSetup
%%Page: 1 1
%%BeginPageSetup
%%PageBoundingBox: 0 0 384 384
%%EndPageSetup
q 0 0 384 384 rectclip
1 0 0 -1 0 384 cm q
0 g
84 284.512 m 84 246 l 84 239.371 78.629 234 72 234 c 65.371 234 60 239.371
 60 246 c 60 284.512 l 49.414 289.152 42 299.723 42 312 c 42 328.543 55.457
 342 72 342 c 88.543 342 102 328.543 102 312 c 102 299.723 94.586 289.152
 84 284.512 c h
84 284.512 m f
120 258.328 m 120 48 l 120 21.531 98.469 0 72 0 c 45.531 0 24 21.531 24
 48 c 24 258.328 l 8.676 271.98 0 291.219 0 312 c 0 351.703 32.297 384 72
 384 c 111.703 384 144 351.703 144 312 c 144 291.219 135.324 271.98 120 
258.328 c h
72 360 m 45.531 360 24 338.469 24 312 c 24 296.762 31 282.762 43.207 273.594
 c 46.227 271.328 48 267.773 48 264 c 48 48 l 48 34.766 58.766 24 72 24 
c 85.234 24 96 34.766 96 48 c 96 264 l 96 267.773 97.773 271.328 100.793
 273.594 c 113 282.762 120 296.762 120 312 c 120 338.469 98.469 360 72 360
 c h
72 360 m f
372 108 m 352.969 108 l 362.484 98.484 l 367.172 93.797 367.172 86.199 
362.484 81.516 c 357.801 76.828 350.203 76.828 345.516 81.516 c 319.031 
108 l 304.246 108 l 302.34 101.625 298.957 95.883 294.5 91.168 c 301.902
 78.344 l 338.086 68.648 l 344.488 66.934 348.289 60.352 346.57 53.953 c
 344.855 47.551 338.277 43.75 331.875 45.465 c 318.875 48.949 l 328.395 
32.465 l 331.707 26.727 329.738 19.387 324 16.074 c 318.262 12.762 310.922
 14.727 307.605 20.469 c 298.094 36.945 l 294.609 23.949 l 292.895 17.551
 286.316 13.75 279.914 15.465 c 273.512 17.18 269.711 23.762 271.43 30.16
 c 281.121 66.34 l 273.727 79.148 l 267.293 77.617 260.715 77.617 254.273
 79.148 c 246.879 66.34 l 256.574 30.16 l 258.289 23.762 254.488 17.18 248.09
 15.465 c 241.688 13.75 235.105 17.547 233.391 23.949 c 229.906 36.945 l
 220.395 20.465 l 217.078 14.727 209.742 12.758 204 16.074 c 198.262 19.387
 196.297 26.727 199.609 32.465 c 209.125 48.945 l 196.129 45.465 l 189.723
 43.75 183.145 47.547 181.43 53.949 c 179.715 60.352 183.516 66.93 189.914
 68.645 c 226.098 78.34 l 233.504 91.168 l 229.043 95.883 225.664 101.621
 223.758 107.996 c 208.973 107.996 l 182.488 81.512 l 177.801 76.828 170.203
 76.828 165.516 81.512 c 160.832 86.199 160.832 93.797 165.516 98.484 c 
175.031 108 l 156 108 l 149.371 108 144 113.371 144 120 c 144 126.629 149.371
 132 156 132 c 175.031 132 l 165.516 141.516 l 157.934 149.098 163.406 162
 174 162 c 177.07 162 180.141 160.828 182.484 158.484 c 208.969 132 l 223.754
 132 l 225.66 138.375 229.043 144.117 233.5 148.832 c 226.098 161.656 l 
189.914 171.352 l 183.512 173.066 179.711 179.648 181.43 186.047 c 183.145
 192.449 189.719 196.25 196.125 194.535 c 209.125 191.051 l 199.605 207.535
 l 194.969 215.57 200.848 225.535 209.988 225.535 c 214.137 225.535 218.172
 223.383 220.395 219.531 c 229.906 203.055 l 233.391 216.047 l 234.828 221.41
 239.676 224.945 244.973 224.945 c 252.863 224.945 258.613 217.453 256.574
 209.836 c 246.879 173.66 l 254.273 160.852 l 260.707 162.383 267.289 162.383
 273.727 160.852 c 281.121 173.66 l 271.43 209.84 l 269.387 217.457 275.141
 224.945 283.027 224.945 c 288.324 224.945 293.176 221.41 294.609 216.051
 c 298.094 203.055 l 307.605 219.531 l 309.832 223.383 313.863 225.535 318.012
 225.535 c 327.141 225.535 333.039 215.582 328.395 207.535 c 318.875 191.051
 l 331.875 194.535 l 338.277 196.25 344.859 192.453 346.574 186.051 c 348.289
 179.648 344.488 173.07 338.09 171.352 c 301.906 161.656 l 294.5 148.832
 l 298.961 144.117 302.34 138.379 304.246 132 c 319.031 132 l 345.516 158.484
 l 347.859 160.828 350.93 162 354 162 c 364.594 162 370.07 149.098 362.484
 141.516 c 352.973 132 l 372 132 l 378.629 132 384 126.629 384 120 c 384
 113.371 378.629 108 372 108 c h
246 120 m 246 110.074 254.074 102 264 102 c 273.926 102 282 110.074 282
 120 c 282 129.926 273.926 138 264 138 c 254.074 138 246 129.926 246 120
 c h
246 120 m f
Q Q
showpage
%%Trailer
end
%%EOF
