%!PS-Adobe-3.0 EPSF-3.0
%%Creator: cairo 1.16.0 (https://cairographics.org)
%%CreationDate: Tue Aug  4 10:00:28 2020
%%Pages: 1
%%DocumentData: Clean7Bit
%%LanguageLevel: 2
%%BoundingBox: 0 36 384 348
%%EndComments
%%BeginProlog
50 dict begin
/q { gsave } bind def
/Q { grestore } bind def
/cm { 6 array astore concat } bind def
/w { setlinewidth } bind def
/J { setlinecap } bind def
/j { setlinejoin } bind def
/M { setmiterlimit } bind def
/d { setdash } bind def
/m { moveto } bind def
/l { lineto } bind def
/c { curveto } bind def
/h { closepath } bind def
/re { exch dup neg 3 1 roll 5 3 roll moveto 0 rlineto
      0 exch rlineto 0 rlineto closepath } bind def
/S { stroke } bind def
/f { fill } bind def
/f* { eofill } bind def
/n { newpath } bind def
/W { clip } bind def
/W* { eoclip } bind def
/BT { } bind def
/ET { } bind def
/BDC { mark 3 1 roll /BDC pdfmark } bind def
/EMC { mark /EMC pdfmark } bind def
/cairo_store_point { /cairo_point_y exch def /cairo_point_x exch def } def
/Tj { show currentpoint cairo_store_point } bind def
/TJ {
  {
    dup
    type /stringtype eq
    { show } { -0.001 mul 0 cairo_font_matrix dtransform rmoveto } ifelse
  } forall
  currentpoint cairo_store_point
} bind def
/cairo_selectfont { cairo_font_matrix aload pop pop pop 0 0 6 array astore
    cairo_font exch selectfont cairo_point_x cairo_point_y moveto } bind def
/Tf { pop /cairo_font exch def /cairo_font_matrix where
      { pop cairo_selectfont } if } bind def
/Td { matrix translate cairo_font_matrix matrix concatmatrix dup
      /cairo_font_matrix exch def dup 4 get exch 5 get cairo_store_point
      /cairo_font where { pop cairo_selectfont } if } bind def
/Tm { 2 copy 8 2 roll 6 array astore /cairo_font_matrix exch def
      cairo_store_point /cairo_font where { pop cairo_selectfont } if } bind def
/g { setgray } bind def
/rg { setrgbcolor } bind def
/d1 { setcachedevice } bind def
/cairo_data_source {
  CairoDataIndex CairoData length lt
    { CairoData CairoDataIndex get /CairoDataIndex CairoDataIndex 1 add def }
    { () } ifelse
} def
/cairo_flush_ascii85_file { cairo_ascii85_file status { cairo_ascii85_file flushfile } if } def
/cairo_image { image cairo_flush_ascii85_file } def
/cairo_imagemask { imagemask cairo_flush_ascii85_file } def
%%EndProlog
%%BeginSetup
%%EndSetup
%%Page: 1 1
%%BeginPageSetup
%%PageBoundingBox: 0 36 384 348
%%EndPageSetup
q 0 36 384 312 rectclip
1 0 0 -1 0 384 cm q
0 g
334.5 147.848 m 334.5 103.035 291.656 71.121 249.199 83.215 c 235.566 55.129
 207.066 36 174 36 c 129.254 36 92.613 71.387 90.59 115.645 c 38.738 127.457
 13.352 187.418 41.758 232.875 c 40.582 237.102 39.883 241.52 39.742 246.078
 c 16.98 251.488 0 271.973 0 296.34 c 0 324.824 23.199 348 51.711 348 c 
223.801 348 l 264.699 348 295.91 310.328 287.336 269.684 c 322.5 269.684
 l 356.41 269.684 384 242.098 384 208.184 c 384 178.066 362.465 153.352 
334.5 147.848 c h
223.801 324 m 51.711 324 l 36.434 324 24 311.594 24 296.34 c 24 281.898
 35.301 268.684 52.598 268.684 c 60.168 268.684 65.867 261.734 64.355 254.293
 c 58.977 227.809 86.77 207.18 110.477 219.328 c 117.137 222.742 125.262
 219.285 127.43 212.133 c 133.172 193.215 151.027 180 170.852 180 c 197.266
 180 218.402 202.641 216.027 229.344 c 215.438 235.996 220.395 241.852 227.047
 242.371 c 248.188 244.02 264.75 261.918 264.75 283.121 c 264.75 305.66 
246.379 324 223.801 324 c h
322.5 245.684 m 276.844 245.684 l 267.855 233.008 254.816 224.086 240.035
 220.289 c 237.461 184.41 207.414 156 170.852 156 c 143.844 156 120.805 
171.273 109.258 193.438 c 90.402 188.797 70.5 194.16 56.488 207.938 c 45.957
 174.508 69.777 140.508 103.723 137.859 c 110.379 137.336 115.332 131.48
 114.742 124.832 c 111.645 90.121 139.004 60 174 60 c 199.996 60 223.418
 77.359 230.953 102.219 c 233.125 109.379 241.262 112.832 247.922 109.41
 c 279.637 93.105 316.824 120.793 309.637 156.305 c 308.133 163.723 313.809
 170.684 321.398 170.684 c 332.645 170.684 341.766 174.422 349.012 181.664
 c 372.426 205.094 356.016 245.684 322.5 245.684 c h
322.5 245.684 m f
Q Q
showpage
%%Trailer
end
%%EOF
