%!PS-Adobe-3.0 EPSF-3.0
%%Creator: cairo 1.16.0 (https://cairographics.org)
%%CreationDate: Tue Aug  4 10:00:28 2020
%%Pages: 1
%%DocumentData: Clean7Bit
%%LanguageLevel: 2
%%BoundingBox: 0 12 384 372
%%EndComments
%%BeginProlog
50 dict begin
/q { gsave } bind def
/Q { grestore } bind def
/cm { 6 array astore concat } bind def
/w { setlinewidth } bind def
/J { setlinecap } bind def
/j { setlinejoin } bind def
/M { setmiterlimit } bind def
/d { setdash } bind def
/m { moveto } bind def
/l { lineto } bind def
/c { curveto } bind def
/h { closepath } bind def
/re { exch dup neg 3 1 roll 5 3 roll moveto 0 rlineto
      0 exch rlineto 0 rlineto closepath } bind def
/S { stroke } bind def
/f { fill } bind def
/f* { eofill } bind def
/n { newpath } bind def
/W { clip } bind def
/W* { eoclip } bind def
/BT { } bind def
/ET { } bind def
/BDC { mark 3 1 roll /BDC pdfmark } bind def
/EMC { mark /EMC pdfmark } bind def
/cairo_store_point { /cairo_point_y exch def /cairo_point_x exch def } def
/Tj { show currentpoint cairo_store_point } bind def
/TJ {
  {
    dup
    type /stringtype eq
    { show } { -0.001 mul 0 cairo_font_matrix dtransform rmoveto } ifelse
  } forall
  currentpoint cairo_store_point
} bind def
/cairo_selectfont { cairo_font_matrix aload pop pop pop 0 0 6 array astore
    cairo_font exch selectfont cairo_point_x cairo_point_y moveto } bind def
/Tf { pop /cairo_font exch def /cairo_font_matrix where
      { pop cairo_selectfont } if } bind def
/Td { matrix translate cairo_font_matrix matrix concatmatrix dup
      /cairo_font_matrix exch def dup 4 get exch 5 get cairo_store_point
      /cairo_font where { pop cairo_selectfont } if } bind def
/Tm { 2 copy 8 2 roll 6 array astore /cairo_font_matrix exch def
      cairo_store_point /cairo_font where { pop cairo_selectfont } if } bind def
/g { setgray } bind def
/rg { setrgbcolor } bind def
/d1 { setcachedevice } bind def
/cairo_data_source {
  CairoDataIndex CairoData length lt
    { CairoData CairoDataIndex get /CairoDataIndex CairoDataIndex 1 add def }
    { () } ifelse
} def
/cairo_flush_ascii85_file { cairo_ascii85_file status { cairo_ascii85_file flushfile } if } def
/cairo_image { image cairo_flush_ascii85_file } def
/cairo_imagemask { imagemask cairo_flush_ascii85_file } def
%%EndProlog
%%BeginSetup
%%EndSetup
%%Page: 1 1
%%BeginPageSetup
%%PageBoundingBox: 0 12 384 372
%%EndPageSetup
q 0 12 384 360 rectclip
1 0 0 -1 0 384 cm q
0 g
304.5 250.176 m 304.5 236.316 300.398 223.352 292.879 212.332 c 312.121
 197.855 324 175.051 324 150 c 324 106.992 289.008 72 246 72 c 205.715 72
 172.465 102.703 168.414 141.938 c 116.109 125.988 63.059 163.891 60.59 
217.953 c 25.734 225.895 0 257.062 0 294 c 0 337.008 34.992 372 78 372 c
 292.5 372 l 326.41 372 354 344.41 354 310.5 c 354 280.691 332.688 255.77
 304.5 250.176 c h
246 96 m 275.777 96 300 120.223 300 150 c 300 168.148 290.684 185.129 275.773
 195.039 c 259.246 183.496 238.543 180.07 219.211 185.551 c 213.293 173.348
 204.207 162.137 192.125 153.586 c 190.074 122.145 215.082 96 246 96 c h
292.5 348 m 78 348 l 48.223 348 24 323.777 24 294 c 24 265.992 45.84 242.348
 73.723 240.168 c 80.367 239.648 85.332 233.805 84.742 227.145 c 81.637 
192.195 109.219 162.312 144 162.312 c 170 162.312 193.418 179.672 200.949
 204.531 c 203.121 211.699 211.262 215.141 217.914 211.727 c 249.473 195.535
 286.891 222.91 279.637 258.613 c 278.133 266.02 283.789 273 291.398 273
 c 314.473 273 330 290.758 330 310.5 c 330 331.176 313.176 348 292.5 348
 c h
292.5 348 m f
246 60 m 252.629 60 258 54.629 258 48 c 258 24 l 258 17.371 252.629 12 
246 12 c 239.371 12 234 17.371 234 24 c 234 48 l 234 54.629 239.371 60 246
 60 c h
246 60 m f
372 138 m 348 138 l 341.371 138 336 143.371 336 150 c 336 156.629 341.371
 162 348 162 c 372 162 l 378.629 162 384 156.629 384 150 c 384 143.371 378.629
 138 372 138 c h
372 138 m f
309.641 213.641 m 304.953 218.328 304.953 225.926 309.641 230.609 c 326.609
 247.582 l 331.297 252.266 338.895 252.266 343.582 247.582 c 348.27 242.895
 348.27 235.297 343.582 230.609 c 326.609 213.641 l 321.926 208.953 314.328
 208.953 309.641 213.641 c h
309.641 213.641 m f
165.391 86.359 m 170.074 91.047 177.672 91.047 182.359 86.359 c 187.047
 81.672 187.047 74.074 182.359 69.391 c 165.391 52.418 l 160.707 47.734 
153.105 47.734 148.418 52.418 c 143.734 57.105 143.734 64.703 148.418 69.391
 c h
165.391 86.359 m f
318.125 89.875 m 321.195 89.875 324.266 88.703 326.609 86.359 c 343.582
 69.391 l 348.266 64.703 348.266 57.105 343.582 52.418 c 338.895 47.734 
331.297 47.73 326.609 52.418 c 309.641 69.391 l 302.059 76.973 307.531 89.875
 318.125 89.875 c h
318.125 89.875 m f
Q Q
showpage
%%Trailer
end
%%EOF
