%!PS-Adobe-3.0 EPSF-3.0
%%Creator: cairo 1.16.0 (https://cairographics.org)
%%CreationDate: Tue Aug  4 10:00:29 2020
%%Pages: 1
%%DocumentData: Clean7Bit
%%LanguageLevel: 2
%%BoundingBox: 0 12 384 372
%%EndComments
%%BeginProlog
50 dict begin
/q { gsave } bind def
/Q { grestore } bind def
/cm { 6 array astore concat } bind def
/w { setlinewidth } bind def
/J { setlinecap } bind def
/j { setlinejoin } bind def
/M { setmiterlimit } bind def
/d { setdash } bind def
/m { moveto } bind def
/l { lineto } bind def
/c { curveto } bind def
/h { closepath } bind def
/re { exch dup neg 3 1 roll 5 3 roll moveto 0 rlineto
      0 exch rlineto 0 rlineto closepath } bind def
/S { stroke } bind def
/f { fill } bind def
/f* { eofill } bind def
/n { newpath } bind def
/W { clip } bind def
/W* { eoclip } bind def
/BT { } bind def
/ET { } bind def
/BDC { mark 3 1 roll /BDC pdfmark } bind def
/EMC { mark /EMC pdfmark } bind def
/cairo_store_point { /cairo_point_y exch def /cairo_point_x exch def } def
/Tj { show currentpoint cairo_store_point } bind def
/TJ {
  {
    dup
    type /stringtype eq
    { show } { -0.001 mul 0 cairo_font_matrix dtransform rmoveto } ifelse
  } forall
  currentpoint cairo_store_point
} bind def
/cairo_selectfont { cairo_font_matrix aload pop pop pop 0 0 6 array astore
    cairo_font exch selectfont cairo_point_x cairo_point_y moveto } bind def
/Tf { pop /cairo_font exch def /cairo_font_matrix where
      { pop cairo_selectfont } if } bind def
/Td { matrix translate cairo_font_matrix matrix concatmatrix dup
      /cairo_font_matrix exch def dup 4 get exch 5 get cairo_store_point
      /cairo_font where { pop cairo_selectfont } if } bind def
/Tm { 2 copy 8 2 roll 6 array astore /cairo_font_matrix exch def
      cairo_store_point /cairo_font where { pop cairo_selectfont } if } bind def
/g { setgray } bind def
/rg { setrgbcolor } bind def
/d1 { setcachedevice } bind def
/cairo_data_source {
  CairoDataIndex CairoData length lt
    { CairoData CairoDataIndex get /CairoDataIndex CairoDataIndex 1 add def }
    { () } ifelse
} def
/cairo_flush_ascii85_file { cairo_ascii85_file status { cairo_ascii85_file flushfile } if } def
/cairo_image { image cairo_flush_ascii85_file } def
/cairo_imagemask { imagemask cairo_flush_ascii85_file } def
%%EndProlog
%%BeginSetup
%%EndSetup
%%Page: 1 1
%%BeginPageSetup
%%PageBoundingBox: 0 12 384 372
%%EndPageSetup
q 0 12 384 360 rectclip
1 0 0 -1 0 384 cm q
0 g
377.711 134.473 m 372.98 131.914 367.121 132.82 363.383 136.688 c 350.629
 149.887 333.492 157.156 315.133 157.156 c 278.117 157.156 248 127.043 248
 90.027 c 248 67.551 259.18 46.664 277.906 34.16 c 282.379 31.176 284.316
 25.574 282.645 20.465 c 280.973 15.352 276.102 11.98 270.73 12.207 c 204.598
 15.051 155.238 75.152 166.18 141.262 c 114.109 126.91 62.969 164.961 60.551
 217.852 c 25.711 225.793 0 256.945 0 293.852 c 0 336.836 34.969 371.805
 77.953 371.805 c 292.324 371.805 l 326.215 371.805 353.785 344.234 353.785
 310.344 c 353.785 280.555 332.484 255.645 304.316 250.055 c 304.355 243.828
 303.445 237.207 301.551 230.832 c 341.441 221.309 374.172 189.617 383.699
 147.68 c 384.895 142.434 382.445 137.035 377.711 134.473 c h
329.801 310.344 m 329.801 331.008 312.988 347.82 292.324 347.82 c 77.953
 347.82 l 48.195 347.82 23.984 323.609 23.984 293.852 c 23.984 265.859 45.812
 242.23 73.676 240.055 c 80.316 239.535 85.281 233.691 84.688 227.035 c 
81.59 192.113 109.145 162.246 143.91 162.246 c 169.895 162.246 193.301 179.594
 200.828 204.438 c 202.992 211.586 211.121 215.043 217.781 211.629 c 249.555
 195.324 286.66 223.055 279.469 258.488 c 277.961 265.902 283.633 272.867
 291.219 272.867 c 314.281 272.863 329.801 290.609 329.801 310.344 c h
290.113 208.691 m 273.301 187.203 245.355 178.02 219.078 185.469 c 213.488
 173.941 205.23 163.691 195.078 155.793 c 178.371 114.902 195.055 66.762
 235.441 45.812 c 228.051 59.133 224.016 74.293 224.016 90.027 c 224.016
 152.02 285.066 196.277 344.23 176.434 c 331.121 193.32 311.973 205.039 
290.113 208.691 c h
290.113 208.691 m f
311.812 89.977 m 317.809 89.977 l 317.809 95.973 l 317.809 102.594 323.176
 107.965 329.801 107.965 c 336.422 107.965 341.793 102.594 341.793 95.973
 c 341.793 89.977 l 347.789 89.977 l 354.41 89.977 359.781 84.605 359.781
 77.984 c 359.781 71.359 354.41 65.992 347.789 65.992 c 341.793 65.992 l
 341.793 59.996 l 341.793 53.371 336.422 48 329.801 48 c 323.176 48 317.809
 53.371 317.809 59.996 c 317.809 65.992 l 311.812 65.992 l 305.188 65.992
 299.816 71.359 299.816 77.984 c 299.816 84.605 305.188 89.977 311.812 89.977
 c h
311.812 89.977 m f
17.988 155.938 m 23.984 155.938 l 23.984 161.934 l 23.984 168.555 29.355
 173.926 35.977 173.926 c 42.602 173.926 47.973 168.555 47.973 161.934 c
 47.973 155.938 l 53.969 155.938 l 60.59 155.938 65.961 150.566 65.961 143.941
 c 65.961 137.32 60.59 131.949 53.969 131.949 c 47.973 131.949 l 47.973 
125.953 l 47.973 119.332 42.602 113.961 35.977 113.961 c 29.355 113.961 
23.984 119.332 23.984 125.953 c 23.984 131.949 l 17.988 131.949 l 11.367
 131.949 5.996 137.32 5.996 143.941 c 5.996 150.566 11.367 155.938 17.988
 155.938 c h
17.988 155.938 m f
101.938 71.988 m 107.934 71.988 l 107.934 77.984 l 107.934 84.605 113.305
 89.977 119.926 89.977 c 126.551 89.977 131.918 84.605 131.918 77.984 c 
131.918 71.988 l 137.918 71.988 l 144.539 71.988 149.91 66.617 149.91 59.996
 c 149.91 53.371 144.539 48 137.918 48 c 131.918 48 l 131.918 42.004 l 131.918
 35.383 126.551 30.012 119.926 30.012 c 113.305 30.012 107.934 35.383 107.934
 42.004 c 107.934 48 l 101.938 48 l 95.316 48 89.945 53.371 89.945 59.996
 c 89.945 66.617 95.316 71.988 101.938 71.988 c h
101.938 71.988 m f
Q Q
showpage
%%Trailer
end
%%EOF
