%!PS-Adobe-3.0 EPSF-3.0
%%Creator: cairo 1.16.0 (https://cairographics.org)
%%CreationDate: Tue Aug  4 10:00:30 2020
%%Pages: 1
%%DocumentData: Clean7Bit
%%LanguageLevel: 2
%%BoundingBox: 0 0 384 384
%%EndComments
%%BeginProlog
50 dict begin
/q { gsave } bind def
/Q { grestore } bind def
/cm { 6 array astore concat } bind def
/w { setlinewidth } bind def
/J { setlinecap } bind def
/j { setlinejoin } bind def
/M { setmiterlimit } bind def
/d { setdash } bind def
/m { moveto } bind def
/l { lineto } bind def
/c { curveto } bind def
/h { closepath } bind def
/re { exch dup neg 3 1 roll 5 3 roll moveto 0 rlineto
      0 exch rlineto 0 rlineto closepath } bind def
/S { stroke } bind def
/f { fill } bind def
/f* { eofill } bind def
/n { newpath } bind def
/W { clip } bind def
/W* { eoclip } bind def
/BT { } bind def
/ET { } bind def
/BDC { mark 3 1 roll /BDC pdfmark } bind def
/EMC { mark /EMC pdfmark } bind def
/cairo_store_point { /cairo_point_y exch def /cairo_point_x exch def } def
/Tj { show currentpoint cairo_store_point } bind def
/TJ {
  {
    dup
    type /stringtype eq
    { show } { -0.001 mul 0 cairo_font_matrix dtransform rmoveto } ifelse
  } forall
  currentpoint cairo_store_point
} bind def
/cairo_selectfont { cairo_font_matrix aload pop pop pop 0 0 6 array astore
    cairo_font exch selectfont cairo_point_x cairo_point_y moveto } bind def
/Tf { pop /cairo_font exch def /cairo_font_matrix where
      { pop cairo_selectfont } if } bind def
/Td { matrix translate cairo_font_matrix matrix concatmatrix dup
      /cairo_font_matrix exch def dup 4 get exch 5 get cairo_store_point
      /cairo_font where { pop cairo_selectfont } if } bind def
/Tm { 2 copy 8 2 roll 6 array astore /cairo_font_matrix exch def
      cairo_store_point /cairo_font where { pop cairo_selectfont } if } bind def
/g { setgray } bind def
/rg { setrgbcolor } bind def
/d1 { setcachedevice } bind def
/cairo_data_source {
  CairoDataIndex CairoData length lt
    { CairoData CairoDataIndex get /CairoDataIndex CairoDataIndex 1 add def }
    { () } ifelse
} def
/cairo_flush_ascii85_file { cairo_ascii85_file status { cairo_ascii85_file flushfile } if } def
/cairo_image { image cairo_flush_ascii85_file } def
/cairo_imagemask { imagemask cairo_flush_ascii85_file } def
%%EndProlog
%%BeginSetup
%%EndSetup
%%Page: 1 1
%%BeginPageSetup
%%PageBoundingBox: 0 0 384 384
%%EndPageSetup
q 0 0 384 384 rectclip
1 0 0 -1 0 384 cm q
0 g
222 234 m 60 234 l 53.371 234 48 239.371 48 246 c 48 252.629 53.371 258
 60 258 c 222 258 l 238.617 258 252 271.457 252 288 c 252 314.82 219.527
 327.938 200.781 309.211 c 196.094 304.527 188.496 304.531 183.812 309.219
 c 179.129 313.906 179.129 321.504 183.82 326.188 c 194.023 336.387 207.586
 342 222 342 c 251.777 342 276 317.777 276 288 c 276 258.145 251.832 234
 222 234 c h
222 234 m f
36 162 m 156 162 l 182.516 162 204 140.551 204 114 c 204 87.531 182.469
 66 156 66 c 143.168 66 131.113 70.996 122.055 80.066 c 117.371 84.754 117.375
 92.352 122.066 97.035 c 126.754 101.719 134.352 101.715 139.035 97.023 
c 143.559 92.496 149.586 90 156 90 c 177.496 90 187.934 116.023 172.965 
130.977 c 168.441 135.504 162.414 138 156 138 c 36 138 l 29.371 138 24 143.371
 24 150 c 24 156.629 29.371 162 36 162 c h
36 162 m f
315.727 209.402 m 353.625 204.719 384 172.371 384 132 c 384 88.992 349.008
 54 306 54 c 285.16 54 265.574 62.117 250.848 76.852 c 246.16 81.539 246.164
 89.137 250.852 93.82 c 255.539 98.508 263.137 98.504 267.82 93.816 c 278.016
 83.617 291.574 78 306 78 c 335.777 78 360 102.223 360 132 c 360 161.832
 335.852 186 306 186 c 12 186 l 5.371 186 0 191.371 0 198 c 0 204.629 5.371
 210 12 210 c 333.074 210 312.883 210.332 315.727 209.402 c h
315.727 209.402 m f
42 96 m 45.07 96 48.141 94.828 50.484 92.484 c 58.969 84 l 72 84 l 101.777
 84 126 59.777 126 30 c 126 12 l 126 5.371 120.629 0 114 0 c 96 0 l 66.223
 0 42 24.223 42 54 c 42 67.031 l 33.516 75.516 l 25.934 83.098 31.406 96
 42 96 c h
66 54 m 66 37.457 79.457 24 96 24 c 102 24 l 102 30 l 102 46.543 88.543
 60 72 60 c 66 60 l h
66 54 m f
99.516 291.516 m 91.031 300 l 78 300 l 48.223 300 24 324.223 24 354 c 24
 372 l 24 378.629 29.371 384 36 384 c 54 384 l 83.777 384 108 359.777 108
 330 c 108 316.969 l 116.484 308.484 l 121.172 303.801 121.172 296.203 116.484
 291.516 c 111.797 286.828 104.203 286.828 99.516 291.516 c h
84 330 m 84 346.543 70.543 360 54 360 c 48 360 l 48 354 l 48 337.457 61.457
 324 78 324 c 84 324 l h
84 330 m f
330 252 m 316.969 252 l 308.484 243.516 l 303.801 238.828 296.203 238.828
 291.516 243.516 c 286.828 248.203 286.828 255.801 291.516 260.484 c 300
 268.969 l 300 282 l 300 311.777 324.223 336 354 336 c 372 336 l 378.629
 336 384 330.629 384 324 c 384 306 l 384 276.223 359.777 252 330 252 c h
360 312 m 354 312 l 337.457 312 324 298.543 324 282 c 324 276 l 330 276
 l 346.543 276 360 289.457 360 306 c h
360 312 m f
Q Q
showpage
%%Trailer
end
%%EOF
