%!PS-Adobe-3.0 EPSF-3.0
%%Creator: cairo 1.16.0 (https://cairographics.org)
%%CreationDate: Tue Aug  4 10:00:31 2020
%%Pages: 1
%%DocumentData: Clean7Bit
%%LanguageLevel: 2
%%BoundingBox: 0 0 384 384
%%EndComments
%%BeginProlog
50 dict begin
/q { gsave } bind def
/Q { grestore } bind def
/cm { 6 array astore concat } bind def
/w { setlinewidth } bind def
/J { setlinecap } bind def
/j { setlinejoin } bind def
/M { setmiterlimit } bind def
/d { setdash } bind def
/m { moveto } bind def
/l { lineto } bind def
/c { curveto } bind def
/h { closepath } bind def
/re { exch dup neg 3 1 roll 5 3 roll moveto 0 rlineto
      0 exch rlineto 0 rlineto closepath } bind def
/S { stroke } bind def
/f { fill } bind def
/f* { eofill } bind def
/n { newpath } bind def
/W { clip } bind def
/W* { eoclip } bind def
/BT { } bind def
/ET { } bind def
/BDC { mark 3 1 roll /BDC pdfmark } bind def
/EMC { mark /EMC pdfmark } bind def
/cairo_store_point { /cairo_point_y exch def /cairo_point_x exch def } def
/Tj { show currentpoint cairo_store_point } bind def
/TJ {
  {
    dup
    type /stringtype eq
    { show } { -0.001 mul 0 cairo_font_matrix dtransform rmoveto } ifelse
  } forall
  currentpoint cairo_store_point
} bind def
/cairo_selectfont { cairo_font_matrix aload pop pop pop 0 0 6 array astore
    cairo_font exch selectfont cairo_point_x cairo_point_y moveto } bind def
/Tf { pop /cairo_font exch def /cairo_font_matrix where
      { pop cairo_selectfont } if } bind def
/Td { matrix translate cairo_font_matrix matrix concatmatrix dup
      /cairo_font_matrix exch def dup 4 get exch 5 get cairo_store_point
      /cairo_font where { pop cairo_selectfont } if } bind def
/Tm { 2 copy 8 2 roll 6 array astore /cairo_font_matrix exch def
      cairo_store_point /cairo_font where { pop cairo_selectfont } if } bind def
/g { setgray } bind def
/rg { setrgbcolor } bind def
/d1 { setcachedevice } bind def
/cairo_data_source {
  CairoDataIndex CairoData length lt
    { CairoData CairoDataIndex get /CairoDataIndex CairoDataIndex 1 add def }
    { () } ifelse
} def
/cairo_flush_ascii85_file { cairo_ascii85_file status { cairo_ascii85_file flushfile } if } def
/cairo_image { image cairo_flush_ascii85_file } def
/cairo_imagemask { imagemask cairo_flush_ascii85_file } def
%%EndProlog
%%BeginSetup
%%EndSetup
%%Page: 1 1
%%BeginPageSetup
%%PageBoundingBox: 0 0 384 384
%%EndPageSetup
q 0 0 384 384 rectclip
1 0 0 -1 0 384 cm q
0 g
329.73 121.594 m 330.422 73.078 283.676 37.785 237.371 51.625 c 223.043
 21.305 192.344 0 156.078 0 c 107.66 0 68.066 38.508 66.312 86.504 c 2.535
 100.371 -22.367 180.422 24.938 227.699 c 40.766 243.535 61.82 252.258 84.219
 252.258 c 126.105 252.258 l 109.633 282.453 l 105.289 290.414 111.059 300.164
 120.148 300.164 c 180.031 300.164 l 180.031 372.023 l 180.031 377.496 183.742
 382.273 189.047 383.629 c 194.316 384.973 199.883 382.594 202.52 377.758
 c 270.977 252.258 l 317.762 252.258 l 354.082 252.258 383.633 222.707 383.633
 186.387 c 383.633 153.844 360.148 127.145 329.73 121.594 c h
203.984 325.055 m 203.984 288.188 l 203.984 281.574 198.621 276.211 192.008
 276.211 c 140.324 276.211 l 147.57 262.922 169.715 222.324 180.031 203.414
 c 180.031 240.281 l 180.031 246.895 185.395 252.258 192.008 252.258 c 243.691
 252.258 l h
317.762 228.305 m 306.57 228.305 215.199 228.305 203.984 228.305 c 203.984
 156.445 l 203.984 150.969 200.273 146.191 194.969 144.84 c 189.66 143.488
 184.117 145.902 181.492 150.707 c 139.168 228.305 l 84.219 228.305 l 51.133
 228.305 24.336 201.527 24.336 168.422 c 24.336 137.359 48.555 111.137 79.477
 108.727 c 86.105 108.207 91.059 102.379 90.477 95.734 c 87.043 56.73 117.836
 23.953 156.078 23.953 c 184.863 23.953 210.789 43.172 219.125 70.691 c 
221.293 77.844 229.414 81.277 236.051 77.875 c 271.555 59.672 312.824 90.699
 304.828 130.109 c 303.328 137.5 308.969 144.469 316.566 144.469 c 342.707
 144.469 359.68 164.562 359.68 186.387 c 359.68 209.5 340.875 228.305 317.762
 228.305 c h
317.762 228.305 m f
Q Q
showpage
%%Trailer
end
%%EOF
