%!PS-Adobe-3.0 EPSF-3.0
%%Creator: cairo 1.16.0 (https://cairographics.org)
%%CreationDate: Tue Aug  4 10:00:32 2020
%%Pages: 1
%%DocumentData: Clean7Bit
%%LanguageLevel: 2
%%BoundingBox: 0 0 384 384
%%EndComments
%%BeginProlog
50 dict begin
/q { gsave } bind def
/Q { grestore } bind def
/cm { 6 array astore concat } bind def
/w { setlinewidth } bind def
/J { setlinecap } bind def
/j { setlinejoin } bind def
/M { setmiterlimit } bind def
/d { setdash } bind def
/m { moveto } bind def
/l { lineto } bind def
/c { curveto } bind def
/h { closepath } bind def
/re { exch dup neg 3 1 roll 5 3 roll moveto 0 rlineto
      0 exch rlineto 0 rlineto closepath } bind def
/S { stroke } bind def
/f { fill } bind def
/f* { eofill } bind def
/n { newpath } bind def
/W { clip } bind def
/W* { eoclip } bind def
/BT { } bind def
/ET { } bind def
/BDC { mark 3 1 roll /BDC pdfmark } bind def
/EMC { mark /EMC pdfmark } bind def
/cairo_store_point { /cairo_point_y exch def /cairo_point_x exch def } def
/Tj { show currentpoint cairo_store_point } bind def
/TJ {
  {
    dup
    type /stringtype eq
    { show } { -0.001 mul 0 cairo_font_matrix dtransform rmoveto } ifelse
  } forall
  currentpoint cairo_store_point
} bind def
/cairo_selectfont { cairo_font_matrix aload pop pop pop 0 0 6 array astore
    cairo_font exch selectfont cairo_point_x cairo_point_y moveto } bind def
/Tf { pop /cairo_font exch def /cairo_font_matrix where
      { pop cairo_selectfont } if } bind def
/Td { matrix translate cairo_font_matrix matrix concatmatrix dup
      /cairo_font_matrix exch def dup 4 get exch 5 get cairo_store_point
      /cairo_font where { pop cairo_selectfont } if } bind def
/Tm { 2 copy 8 2 roll 6 array astore /cairo_font_matrix exch def
      cairo_store_point /cairo_font where { pop cairo_selectfont } if } bind def
/g { setgray } bind def
/rg { setrgbcolor } bind def
/d1 { setcachedevice } bind def
/cairo_data_source {
  CairoDataIndex CairoData length lt
    { CairoData CairoDataIndex get /CairoDataIndex CairoDataIndex 1 add def }
    { () } ifelse
} def
/cairo_flush_ascii85_file { cairo_ascii85_file status { cairo_ascii85_file flushfile } if } def
/cairo_image { image cairo_flush_ascii85_file } def
/cairo_imagemask { imagemask cairo_flush_ascii85_file } def
%%EndProlog
%%BeginSetup
%%EndSetup
%%Page: 1 1
%%BeginPageSetup
%%PageBoundingBox: 0 0 384 384
%%EndPageSetup
q 0 0 384 384 rectclip
1 0 0 -1 0 384 cm q
0 g
329.723 121.605 m 330.402 73.215 283.918 37.812 237.375 51.648 c 223.078
 21.371 192.41 0 156.07 0 c 107.652 0 68.059 38.508 66.305 86.504 c 28.73
 94.676 0.375 128.141 0.375 168.422 c 0.375 214.648 37.984 252.258 84.211
 252.258 c 317.754 252.258 l 354.074 252.258 383.625 222.707 383.625 186.387
 c 383.625 154.148 360.352 127.25 329.723 121.605 c h
317.754 228.305 m 84.211 228.305 l 51.191 228.305 24.328 201.441 24.328
 168.422 c 24.328 137.363 48.547 111.141 79.469 108.723 c 86.098 108.207
 91.055 102.375 90.465 95.727 c 87.031 57.039 117.559 23.953 156.07 23.953
 c 184.852 23.953 210.781 43.172 219.117 70.691 c 221.285 77.848 229.41 
81.277 236.047 77.875 c 271.184 59.844 312.898 90.297 304.816 130.109 c 
303.316 137.5 308.961 144.469 316.555 144.469 c 342.527 144.469 359.672 
164.508 359.672 186.387 c 359.672 209.5 340.867 228.305 317.754 228.305 
c h
317.754 228.305 m f
281.824 276.211 m 60.258 276.211 l 53.641 276.211 48.281 281.574 48.281
 288.188 c 48.281 294.801 53.641 300.164 60.258 300.164 c 281.824 300.164
 l 298.438 300.164 311.766 313.629 311.766 330.105 c 311.766 356.871 279.355
 369.965 260.648 351.273 c 255.969 346.602 248.387 346.602 243.711 351.281
 c 239.035 355.961 239.039 363.547 243.719 368.219 c 253.902 378.395 267.438
 384 281.824 384 c 311.543 384 335.719 359.824 335.719 330.105 c 335.719
 300.309 311.598 276.211 281.824 276.211 c h
281.824 276.211 m f
209.965 108.539 m 197.16 108.539 185.129 113.523 176.086 122.574 c 171.41
 127.254 171.414 134.836 176.094 139.512 c 180.777 144.188 188.359 144.184
 193.031 139.504 c 197.551 134.98 203.562 132.492 209.965 132.492 c 231.422
 132.492 241.832 158.461 226.898 173.383 c 222.379 177.906 216.367 180.398
 209.965 180.398 c 90.199 180.398 l 83.586 180.398 78.223 185.762 78.223
 192.375 c 78.223 198.988 83.586 204.352 90.199 204.352 c 209.965 204.352
 l 236.43 204.352 257.871 182.941 257.871 156.445 c 257.871 130.027 236.379
 108.539 209.965 108.539 c h
209.965 108.539 m f
203.977 324.117 m 96.188 324.117 l 89.574 324.117 84.211 329.48 84.211 
336.094 c 84.211 342.707 89.574 348.07 96.188 348.07 c 203.977 348.07 l 
210.59 348.07 215.953 342.707 215.953 336.094 c 215.953 329.48 210.59 324.117
 203.977 324.117 c h
203.977 324.117 m f
24.328 276.211 m 12.352 276.211 l 5.734 276.211 0.375 281.574 0.375 288.188
 c 0.375 294.801 5.734 300.164 12.352 300.164 c 24.328 300.164 l 30.941 
300.164 36.305 294.801 36.305 288.188 c 36.305 281.574 30.941 276.211 24.328
 276.211 c h
24.328 276.211 m f
Q Q
showpage
%%Trailer
end
%%EOF
