%!PS-Adobe-3.0 EPSF-3.0
%%Creator: cairo 1.16.0 (https://cairographics.org)
%%CreationDate: Tue Aug  4 10:00:34 2020
%%Pages: 1
%%DocumentData: Clean7Bit
%%LanguageLevel: 2
%%BoundingBox: 0 0 384 384
%%EndComments
%%BeginProlog
50 dict begin
/q { gsave } bind def
/Q { grestore } bind def
/cm { 6 array astore concat } bind def
/w { setlinewidth } bind def
/J { setlinecap } bind def
/j { setlinejoin } bind def
/M { setmiterlimit } bind def
/d { setdash } bind def
/m { moveto } bind def
/l { lineto } bind def
/c { curveto } bind def
/h { closepath } bind def
/re { exch dup neg 3 1 roll 5 3 roll moveto 0 rlineto
      0 exch rlineto 0 rlineto closepath } bind def
/S { stroke } bind def
/f { fill } bind def
/f* { eofill } bind def
/n { newpath } bind def
/W { clip } bind def
/W* { eoclip } bind def
/BT { } bind def
/ET { } bind def
/BDC { mark 3 1 roll /BDC pdfmark } bind def
/EMC { mark /EMC pdfmark } bind def
/cairo_store_point { /cairo_point_y exch def /cairo_point_x exch def } def
/Tj { show currentpoint cairo_store_point } bind def
/TJ {
  {
    dup
    type /stringtype eq
    { show } { -0.001 mul 0 cairo_font_matrix dtransform rmoveto } ifelse
  } forall
  currentpoint cairo_store_point
} bind def
/cairo_selectfont { cairo_font_matrix aload pop pop pop 0 0 6 array astore
    cairo_font exch selectfont cairo_point_x cairo_point_y moveto } bind def
/Tf { pop /cairo_font exch def /cairo_font_matrix where
      { pop cairo_selectfont } if } bind def
/Td { matrix translate cairo_font_matrix matrix concatmatrix dup
      /cairo_font_matrix exch def dup 4 get exch 5 get cairo_store_point
      /cairo_font where { pop cairo_selectfont } if } bind def
/Tm { 2 copy 8 2 roll 6 array astore /cairo_font_matrix exch def
      cairo_store_point /cairo_font where { pop cairo_selectfont } if } bind def
/g { setgray } bind def
/rg { setrgbcolor } bind def
/d1 { setcachedevice } bind def
/cairo_data_source {
  CairoDataIndex CairoData length lt
    { CairoData CairoDataIndex get /CairoDataIndex CairoDataIndex 1 add def }
    { () } ifelse
} def
/cairo_flush_ascii85_file { cairo_ascii85_file status { cairo_ascii85_file flushfile } if } def
/cairo_image { image cairo_flush_ascii85_file } def
/cairo_imagemask { imagemask cairo_flush_ascii85_file } def
%%EndProlog
%%BeginSetup
%%EndSetup
%%Page: 1 1
%%BeginPageSetup
%%PageBoundingBox: 0 0 384 384
%%EndPageSetup
q 0 0 384 384 rectclip
1 0 0 -1 0 384 cm q
0 g
331.402 60.805 m 337.539 47.121 341.609 31.164 341.609 11.969 c 341.609
 5.359 336.25 0 329.641 0 c 54.359 0 l 47.75 0 42.391 5.359 42.391 11.969
 c 42.391 24.434 42.391 36.363 42.738 47.875 c 18.453 47.875 l 11.844 47.875
 6.484 53.234 6.484 59.844 c 6.484 66.453 11.844 71.812 18.453 71.812 c 
44.129 71.812 l 45.355 85.098 47.453 97.895 51.035 110.406 c 17.496 119.926
 0.5 133.086 0.5 149.609 c 0.5 182.996 70.012 195.562 114.102 200.172 c 
119.453 204.547 125.137 208.891 131.184 213.207 c 152.059 228.121 166.332
 246.902 173.879 269.297 c 156.094 269.297 l 149.484 269.297 144.125 274.656
 144.125 281.266 c 144.125 287.875 149.484 293.234 156.094 293.234 c 179.215
 293.234 l 182.223 318.273 177.711 345.812 170.777 363.441 c 165.957 369.316
 166.938 379.582 175.195 383.074 c 179.023 384.691 183.734 384.215 187.281
 381.434 c 195.551 378.914 213.816 372.289 232.09 358.598 c 254.754 341.617
 281.766 310.266 281.766 257.328 c 281.766 252.957 281.688 248.988 281.547
 245.359 c 299.719 245.359 l 306.328 245.359 311.688 240 311.688 233.391
 c 311.688 226.781 306.328 221.422 299.719 221.422 c 279.09 221.422 l 275.363
 201.465 269.797 197.965 269.797 161.578 c 269.797 153.484 271.711 146.375
 274.977 139.633 c 303.664 136.691 328.148 132.262 346.074 126.758 c 362.141
 121.824 383.5 113.238 383.5 95.75 c 383.5 80.324 366.848 69.078 331.402
 60.805 c h
24.512 149.605 m 25.711 147.055 34.094 139.855 59.355 132.934 c 65.652 
146.602 74.043 159.508 84.762 171.926 c 71.414 169.543 59.566 166.664 49.676
 163.367 c 31.504 157.309 25.469 151.531 24.512 149.605 c h
245.859 245.359 m 257.59 245.359 l 257.742 248.918 257.828 252.871 257.828
 257.328 c 257.828 300.496 236.383 332.074 199.469 350.723 c 203.707 332.051
 205.262 312.359 203.293 293.234 c 221.922 293.234 l 228.531 293.234 233.891
 287.875 233.891 281.266 c 233.891 274.656 228.531 269.297 221.922 269.297
 c 198.84 269.297 l 191.746 243.516 177.598 221.125 156.918 203.078 c 164.535
 203.336 172.246 203.469 180.031 203.469 c 186.641 203.469 192 198.109 192
 191.5 c 192 184.891 186.641 179.531 180.031 179.531 c 160.633 179.531 141.715
 178.691 123.719 177.047 c 87.125 145.57 72.367 114.992 68.109 71.812 c 
180.031 71.812 l 186.641 71.812 192 66.453 192 59.844 c 192 53.234 186.641
 47.875 180.031 47.875 c 66.668 47.875 l 66.438 40.211 66.363 32.254 66.34
 23.938 c 316.996 23.938 l 311.977 67.281 280.211 87.926 260.633 116.918
 c 238.934 118.75 215.887 119.688 192 119.688 c 185.391 119.688 180.031 
125.047 180.031 131.656 c 180.031 138.266 185.391 143.625 192 143.625 c 
211.48 143.625 230.434 143.016 248.609 141.824 c 246.863 147.934 245.859
 154.473 245.859 161.578 c 245.859 197.984 251.207 206.773 254.621 221.422
 c 245.859 221.422 l 239.25 221.422 233.891 226.781 233.891 233.391 c 233.891
 240 239.25 245.359 245.859 245.359 c h
293.945 113.238 m 302.359 103.52 310.977 94.121 318.973 82.582 c 344.137
 87.797 354.195 93.098 357.945 95.789 c 352.062 99.965 333.973 107.598 293.945
 113.238 c h
293.945 113.238 m f
Q Q
showpage
%%Trailer
end
%%EOF
