%!PS-Adobe-3.0 EPSF-3.0
%%Creator: cairo 1.16.0 (https://cairographics.org)
%%CreationDate: Tue Aug  4 10:00:35 2020
%%Pages: 1
%%DocumentData: Clean7Bit
%%LanguageLevel: 2
%%BoundingBox: 0 0 384 384
%%EndComments
%%BeginProlog
50 dict begin
/q { gsave } bind def
/Q { grestore } bind def
/cm { 6 array astore concat } bind def
/w { setlinewidth } bind def
/J { setlinecap } bind def
/j { setlinejoin } bind def
/M { setmiterlimit } bind def
/d { setdash } bind def
/m { moveto } bind def
/l { lineto } bind def
/c { curveto } bind def
/h { closepath } bind def
/re { exch dup neg 3 1 roll 5 3 roll moveto 0 rlineto
      0 exch rlineto 0 rlineto closepath } bind def
/S { stroke } bind def
/f { fill } bind def
/f* { eofill } bind def
/n { newpath } bind def
/W { clip } bind def
/W* { eoclip } bind def
/BT { } bind def
/ET { } bind def
/BDC { mark 3 1 roll /BDC pdfmark } bind def
/EMC { mark /EMC pdfmark } bind def
/cairo_store_point { /cairo_point_y exch def /cairo_point_x exch def } def
/Tj { show currentpoint cairo_store_point } bind def
/TJ {
  {
    dup
    type /stringtype eq
    { show } { -0.001 mul 0 cairo_font_matrix dtransform rmoveto } ifelse
  } forall
  currentpoint cairo_store_point
} bind def
/cairo_selectfont { cairo_font_matrix aload pop pop pop 0 0 6 array astore
    cairo_font exch selectfont cairo_point_x cairo_point_y moveto } bind def
/Tf { pop /cairo_font exch def /cairo_font_matrix where
      { pop cairo_selectfont } if } bind def
/Td { matrix translate cairo_font_matrix matrix concatmatrix dup
      /cairo_font_matrix exch def dup 4 get exch 5 get cairo_store_point
      /cairo_font where { pop cairo_selectfont } if } bind def
/Tm { 2 copy 8 2 roll 6 array astore /cairo_font_matrix exch def
      cairo_store_point /cairo_font where { pop cairo_selectfont } if } bind def
/g { setgray } bind def
/rg { setrgbcolor } bind def
/d1 { setcachedevice } bind def
/cairo_data_source {
  CairoDataIndex CairoData length lt
    { CairoData CairoDataIndex get /CairoDataIndex CairoDataIndex 1 add def }
    { () } ifelse
} def
/cairo_flush_ascii85_file { cairo_ascii85_file status { cairo_ascii85_file flushfile } if } def
/cairo_image { image cairo_flush_ascii85_file } def
/cairo_imagemask { imagemask cairo_flush_ascii85_file } def
%%EndProlog
%%BeginSetup
%%EndSetup
%%Page: 1 1
%%BeginPageSetup
%%PageBoundingBox: 0 0 384 384
%%EndPageSetup
q 0 0 384 384 rectclip
1 0 0 -1 0 384 cm q
0 g
84 252.75 m 318 252.75 l 354.391 252.75 384 223.141 384 186.75 c 384 154.453
 360.68 127.496 329.992 121.844 c 330.723 73.551 284.242 37.844 237.465 
51.75 c 223.137 21.414 192.41 0 156 0 c 107.488 0 67.816 38.582 66.062 86.672
 c 28.41 94.859 0 128.391 0 168.75 c 0 215.066 37.684 252.75 84 252.75 c
 h
79.25 108.938 m 85.891 108.418 90.855 102.574 90.266 95.914 c 86.832 57.172
 117.387 24 156 24 c 184.84 24 210.816 43.258 219.172 70.828 c 221.34 77.984
 229.473 81.445 236.133 78.027 c 271.633 59.809 313.074 90.801 305.039 130.363
 c 303.531 137.781 309.203 144.75 316.797 144.75 c 342.828 144.75 360 164.836
 360 186.75 c 360 209.91 341.16 228.75 318 228.75 c 84 228.75 l 50.914 228.75
 24 201.836 24 168.75 c 24 137.629 48.27 111.355 79.25 108.938 c h
79.25 108.938 m f
372 264 m 339.664 264 338.477 276 312 276 c 285.625 276 284.324 264 251.992
 264 c 219.656 264 218.469 276 191.992 276 c 165.914 276 164.082 264 132
 264 c 117.809 264 109.148 266.484 102.547 268.918 c 96.328 271.207 93.145
 278.105 95.434 284.324 c 97.727 290.543 104.621 293.727 110.844 291.438
 c 116.445 289.375 122.188 288 132 288 c 158.375 288 159.625 300 191.992
 300 c 224.328 300 225.516 288 251.992 288 c 278.371 288 279.625 300 312
 300 c 344.336 300 345.523 288 372 288 c 378.629 288 384 282.629 384 276
 c 384 269.371 378.629 264 372 264 c h
372 264 m f
12 288 m 34.875 288 37.172 296.117 58.336 299.109 c 64.914 300.035 70.973
 295.457 71.898 288.906 c 72.824 282.344 68.258 276.273 61.695 275.344 c
 45.391 273.043 39.742 264 12 264 c 5.371 264 0 269.371 0 276 c 0 282.629
 5.371 288 12 288 c h
12 288 m f
372 306 m 366.801 306 362.113 306.324 357.672 306.988 c 351.117 307.965
 346.598 314.074 347.578 320.629 c 348.559 327.191 354.672 331.699 361.219
 330.723 c 364.473 330.234 368 330 372 330 c 378.629 330 384 324.629 384
 318 c 384 311.371 378.629 306 372 306 c h
372 306 m f
312 342 m 320.309 342 324.938 335.848 324.754 329.637 c 324.555 323.012
 319.039 317.82 312.402 317.996 c 289.211 318.707 285.184 307.82 258.734
 306.203 c 252.117 305.797 246.426 310.832 246.023 317.445 c 245.617 324.062
 250.652 329.754 257.266 330.156 c 278.16 331.434 281.918 342 312 342 c 
h
312 342 m f
12 330 m 38.375 330 39.664 342 72 342 c 104.336 342 105.523 330 132 330
 c 158.375 330 159.625 342 191.992 342 c 200.816 342 208.195 341.086 215.215
 339.117 c 221.598 337.332 225.324 330.707 223.535 324.328 c 221.746 317.945
 215.125 314.223 208.742 316.008 c 203.891 317.367 198.566 318 191.992 318
 c 165.914 318 164.082 306 132 306 c 99.664 306 98.477 318 72 318 c 45.625
 318 44.336 306 12 306 c 5.371 306 0 311.371 0 318 c 0 324.629 5.371 330
 12 330 c h
12 330 m f
372 348 m 339.664 348 338.477 360 312 360 c 285.625 360 284.324 348 251.992
 348 c 221.633 348 218.23 358.703 196.754 359.875 c 190.367 360.148 185.277
 365.41 185.277 371.863 c 185.277 378.734 191.047 384.215 197.918 383.848
 c 224.727 382.422 227.305 372 251.992 372 c 278.371 372 279.625 384 312
 384 c 344.336 384 345.523 372 372 372 c 378.629 372 384 366.629 384 360
 c 384 353.371 378.629 348 372 348 c h
372 348 m f
153.246 350.371 m 146.879 348.773 139.93 348 132 348 c 99.664 348 98.477
 360 72 360 c 45.625 360 44.336 348 12 348 c 5.371 348 0 353.371 0 360 c
 0 366.629 5.371 372 12 372 c 38.375 372 39.664 384 72 384 c 104.336 384
 105.523 372 132 372 c 138.02 372 142.918 372.523 147.414 373.652 c 153.844
 375.262 160.359 371.355 161.973 364.926 c 163.582 358.496 159.672 351.98
 153.246 350.371 c h
153.246 350.371 m f
Q Q
showpage
%%Trailer
end
%%EOF
