%!PS-Adobe-3.0 EPSF-3.0
%%Creator: cairo 1.16.0 (https://cairographics.org)
%%CreationDate: Tue Aug  4 10:00:36 2020
%%Pages: 1
%%DocumentData: Clean7Bit
%%LanguageLevel: 2
%%BoundingBox: 0 0 384 384
%%EndComments
%%BeginProlog
50 dict begin
/q { gsave } bind def
/Q { grestore } bind def
/cm { 6 array astore concat } bind def
/w { setlinewidth } bind def
/J { setlinecap } bind def
/j { setlinejoin } bind def
/M { setmiterlimit } bind def
/d { setdash } bind def
/m { moveto } bind def
/l { lineto } bind def
/c { curveto } bind def
/h { closepath } bind def
/re { exch dup neg 3 1 roll 5 3 roll moveto 0 rlineto
      0 exch rlineto 0 rlineto closepath } bind def
/S { stroke } bind def
/f { fill } bind def
/f* { eofill } bind def
/n { newpath } bind def
/W { clip } bind def
/W* { eoclip } bind def
/BT { } bind def
/ET { } bind def
/BDC { mark 3 1 roll /BDC pdfmark } bind def
/EMC { mark /EMC pdfmark } bind def
/cairo_store_point { /cairo_point_y exch def /cairo_point_x exch def } def
/Tj { show currentpoint cairo_store_point } bind def
/TJ {
  {
    dup
    type /stringtype eq
    { show } { -0.001 mul 0 cairo_font_matrix dtransform rmoveto } ifelse
  } forall
  currentpoint cairo_store_point
} bind def
/cairo_selectfont { cairo_font_matrix aload pop pop pop 0 0 6 array astore
    cairo_font exch selectfont cairo_point_x cairo_point_y moveto } bind def
/Tf { pop /cairo_font exch def /cairo_font_matrix where
      { pop cairo_selectfont } if } bind def
/Td { matrix translate cairo_font_matrix matrix concatmatrix dup
      /cairo_font_matrix exch def dup 4 get exch 5 get cairo_store_point
      /cairo_font where { pop cairo_selectfont } if } bind def
/Tm { 2 copy 8 2 roll 6 array astore /cairo_font_matrix exch def
      cairo_store_point /cairo_font where { pop cairo_selectfont } if } bind def
/g { setgray } bind def
/rg { setrgbcolor } bind def
/d1 { setcachedevice } bind def
/cairo_data_source {
  CairoDataIndex CairoData length lt
    { CairoData CairoDataIndex get /CairoDataIndex CairoDataIndex 1 add def }
    { () } ifelse
} def
/cairo_flush_ascii85_file { cairo_ascii85_file status { cairo_ascii85_file flushfile } if } def
/cairo_image { image cairo_flush_ascii85_file } def
/cairo_imagemask { imagemask cairo_flush_ascii85_file } def
%%EndProlog
%%BeginSetup
%%EndSetup
%%Page: 1 1
%%BeginPageSetup
%%PageBoundingBox: 0 0 384 384
%%EndPageSetup
q 0 0 384 384 rectclip
1 0 0 -1 0 384 cm q
0 g
204 18.363 m 204 12 l 204 5.371 198.629 0 192 0 c 185.371 0 180 5.371 180
 12 c 180 18.363 l 83.199 24.023 0 98.723 0 198 c 0 206.691 9.004 212.543
 16.965 208.926 c 70.879 184.418 105.875 213.348 110.922 217.934 c 115.082
 222.789 122.438 223.5 127.438 219.434 c 128.406 218.648 128.562 218.254
 131.145 216.246 c 142.09 207.746 159.184 200.543 180 198.566 c 180 342 
l 180 365.16 198.84 384 222 384 c 245.16 384 264 365.16 264 342 c 264 335.371
 258.629 330 252 330 c 245.371 330 240 335.371 240 342 c 240 351.926 231.926
 360 222 360 c 212.074 360 204 351.926 204 342 c 204 198.57 l 225.008 200.562
 242.266 207.898 253.141 216.473 c 255.461 218.301 255.535 218.586 256.434
 219.34 c 261.863 223.684 269.047 222.625 273.066 217.949 c 278.258 213.242
 313.227 184.465 367.035 208.926 c 374.949 212.523 384 206.75 384 198 c 
384 98.711 300.785 24.02 204 18.363 c h
132.477 187.367 m 135.359 120.812 150.812 85.059 163.98 66.426 c 175.793
 49.711 187.32 44.137 192.012 42.453 c 196.348 44.035 207.164 49.223 218.398
 64.199 c 232.273 82.699 248.562 118.777 251.523 187.371 c 215.902 169.418
 167.918 169.59 132.477 187.367 c h
25.074 180.289 m 32.906 116.207 82.719 63.785 148.277 47.363 c 119.043 
84.289 110.344 140.449 108.449 187.492 c 82.492 173.75 53.273 171.898 25.074
 180.289 c h
275.551 187.492 m 273.656 140.43 264.949 84.285 235.723 47.363 c 301.281
 63.785 351.094 116.211 358.926 180.289 c 330.742 171.898 301.516 173.746
 275.551 187.492 c h
275.551 187.492 m f
Q Q
showpage
%%Trailer
end
%%EOF
