%!PS-Adobe-3.0 EPSF-3.0
%%Creator: cairo 1.16.0 (https://cairographics.org)
%%CreationDate: Tue Aug  4 10:00:38 2020
%%Pages: 1
%%DocumentData: Clean7Bit
%%LanguageLevel: 2
%%BoundingBox: 24 0 360 384
%%EndComments
%%BeginProlog
50 dict begin
/q { gsave } bind def
/Q { grestore } bind def
/cm { 6 array astore concat } bind def
/w { setlinewidth } bind def
/J { setlinecap } bind def
/j { setlinejoin } bind def
/M { setmiterlimit } bind def
/d { setdash } bind def
/m { moveto } bind def
/l { lineto } bind def
/c { curveto } bind def
/h { closepath } bind def
/re { exch dup neg 3 1 roll 5 3 roll moveto 0 rlineto
      0 exch rlineto 0 rlineto closepath } bind def
/S { stroke } bind def
/f { fill } bind def
/f* { eofill } bind def
/n { newpath } bind def
/W { clip } bind def
/W* { eoclip } bind def
/BT { } bind def
/ET { } bind def
/BDC { mark 3 1 roll /BDC pdfmark } bind def
/EMC { mark /EMC pdfmark } bind def
/cairo_store_point { /cairo_point_y exch def /cairo_point_x exch def } def
/Tj { show currentpoint cairo_store_point } bind def
/TJ {
  {
    dup
    type /stringtype eq
    { show } { -0.001 mul 0 cairo_font_matrix dtransform rmoveto } ifelse
  } forall
  currentpoint cairo_store_point
} bind def
/cairo_selectfont { cairo_font_matrix aload pop pop pop 0 0 6 array astore
    cairo_font exch selectfont cairo_point_x cairo_point_y moveto } bind def
/Tf { pop /cairo_font exch def /cairo_font_matrix where
      { pop cairo_selectfont } if } bind def
/Td { matrix translate cairo_font_matrix matrix concatmatrix dup
      /cairo_font_matrix exch def dup 4 get exch 5 get cairo_store_point
      /cairo_font where { pop cairo_selectfont } if } bind def
/Tm { 2 copy 8 2 roll 6 array astore /cairo_font_matrix exch def
      cairo_store_point /cairo_font where { pop cairo_selectfont } if } bind def
/g { setgray } bind def
/rg { setrgbcolor } bind def
/d1 { setcachedevice } bind def
/cairo_data_source {
  CairoDataIndex CairoData length lt
    { CairoData CairoDataIndex get /CairoDataIndex CairoDataIndex 1 add def }
    { () } ifelse
} def
/cairo_flush_ascii85_file { cairo_ascii85_file status { cairo_ascii85_file flushfile } if } def
/cairo_image { image cairo_flush_ascii85_file } def
/cairo_imagemask { imagemask cairo_flush_ascii85_file } def
%%EndProlog
%%BeginSetup
%%EndSetup
%%Page: 1 1
%%BeginPageSetup
%%PageBoundingBox: 24 0 360 384
%%EndPageSetup
q 24 0 336 384 rectclip
1 0 0 -1 0 384 cm q
0 g
192 72.168 m 139.113 72.168 96.086 115.195 96.086 168.086 c 96.086 220.973
 139.113 264 192 264 c 244.887 264 287.914 220.973 287.914 168.086 c 287.914
 115.195 244.887 72.168 192 72.168 c h
192 240 m 152.344 240 120.086 207.738 120.086 168.086 c 120.086 128.43 
152.344 96.168 192 96.168 c 231.656 96.168 263.914 128.43 263.914 168.086
 c 263.914 207.738 231.656 240 192 240 c h
192 240 m f
192 54 m 198.629 54 204 48.629 204 42 c 204 12 l 204 5.371 198.629 0 192
 0 c 185.371 0 180 5.371 180 12 c 180 42 l 180 48.629 185.371 54 192 54 
c h
192 54 m f
348 156 m 318 156 l 311.371 156 306 161.371 306 168 c 306 174.629 311.371
 180 318 180 c 348 180 l 354.629 180 360 174.629 360 168 c 360 161.371 354.629
 156 348 156 c h
348 156 m f
78 168 m 78 161.371 72.629 156 66 156 c 36 156 l 29.371 156 24 161.371 
24 168 c 24 174.629 29.371 180 36 180 c 66 180 l 72.629 180 78 174.629 78
 168 c h
78 168 m f
289.582 248.609 m 284.895 243.926 277.297 243.926 272.609 248.609 c 267.922
 253.297 267.922 260.895 272.609 265.582 c 293.824 286.793 l 296.164 289.137
 299.238 290.309 302.309 290.309 c 312.902 290.309 318.375 277.402 310.793
 269.824 c h
289.582 248.609 m f
94.418 87.391 m 99.105 92.074 106.703 92.074 111.391 87.391 c 116.078 82.703
 116.078 75.105 111.391 70.418 c 90.176 49.207 l 85.492 44.52 77.895 44.52
 73.207 49.207 c 68.52 53.895 68.52 61.492 73.207 66.176 c h
94.418 87.391 m f
281.094 90.906 m 284.168 90.906 287.238 89.734 289.582 87.391 c 310.793
 66.176 l 315.48 61.492 315.48 53.895 310.793 49.207 c 306.105 44.52 298.508
 44.52 293.824 49.207 c 272.609 70.418 l 265.027 78 270.5 90.906 281.094
 90.906 c h
281.094 90.906 m f
94.418 248.609 m 73.207 269.824 l 68.52 274.508 68.52 282.105 73.207 286.793
 c 77.895 291.48 85.492 291.48 90.176 286.793 c 111.391 265.582 l 116.078
 260.895 116.078 253.297 111.391 248.609 c 106.703 243.926 99.105 243.926
 94.418 248.609 c h
94.418 248.609 m f
200.488 285.52 m 196.555 281.582 190.195 280.773 185.336 284.02 c 183.906
 284.977 185.84 283.188 153.516 315.516 c 148.828 320.199 148.828 327.797
 153.516 332.484 c 158.199 337.172 165.797 337.172 170.484 332.484 c 180
 322.969 l 180 372 l 180 378.629 185.371 384 192 384 c 198.629 384 204 378.629
 204 372 c 204 322.969 l 213.516 332.484 l 218.199 337.172 225.801 337.172
 230.484 332.484 c 235.172 327.797 235.172 320.199 230.484 315.516 c h
200.488 285.52 m f
Q Q
showpage
%%Trailer
end
%%EOF
