%!PS-Adobe-3.0 EPSF-3.0
%%Creator: cairo 1.16.0 (https://cairographics.org)
%%CreationDate: Tue Aug  4 10:00:39 2020
%%Pages: 1
%%DocumentData: Clean7Bit
%%LanguageLevel: 2
%%BoundingBox: 0 0 384 384
%%EndComments
%%BeginProlog
50 dict begin
/q { gsave } bind def
/Q { grestore } bind def
/cm { 6 array astore concat } bind def
/w { setlinewidth } bind def
/J { setlinecap } bind def
/j { setlinejoin } bind def
/M { setmiterlimit } bind def
/d { setdash } bind def
/m { moveto } bind def
/l { lineto } bind def
/c { curveto } bind def
/h { closepath } bind def
/re { exch dup neg 3 1 roll 5 3 roll moveto 0 rlineto
      0 exch rlineto 0 rlineto closepath } bind def
/S { stroke } bind def
/f { fill } bind def
/f* { eofill } bind def
/n { newpath } bind def
/W { clip } bind def
/W* { eoclip } bind def
/BT { } bind def
/ET { } bind def
/BDC { mark 3 1 roll /BDC pdfmark } bind def
/EMC { mark /EMC pdfmark } bind def
/cairo_store_point { /cairo_point_y exch def /cairo_point_x exch def } def
/Tj { show currentpoint cairo_store_point } bind def
/TJ {
  {
    dup
    type /stringtype eq
    { show } { -0.001 mul 0 cairo_font_matrix dtransform rmoveto } ifelse
  } forall
  currentpoint cairo_store_point
} bind def
/cairo_selectfont { cairo_font_matrix aload pop pop pop 0 0 6 array astore
    cairo_font exch selectfont cairo_point_x cairo_point_y moveto } bind def
/Tf { pop /cairo_font exch def /cairo_font_matrix where
      { pop cairo_selectfont } if } bind def
/Td { matrix translate cairo_font_matrix matrix concatmatrix dup
      /cairo_font_matrix exch def dup 4 get exch 5 get cairo_store_point
      /cairo_font where { pop cairo_selectfont } if } bind def
/Tm { 2 copy 8 2 roll 6 array astore /cairo_font_matrix exch def
      cairo_store_point /cairo_font where { pop cairo_selectfont } if } bind def
/g { setgray } bind def
/rg { setrgbcolor } bind def
/d1 { setcachedevice } bind def
/cairo_data_source {
  CairoDataIndex CairoData length lt
    { CairoData CairoDataIndex get /CairoDataIndex CairoDataIndex 1 add def }
    { () } ifelse
} def
/cairo_flush_ascii85_file { cairo_ascii85_file status { cairo_ascii85_file flushfile } if } def
/cairo_image { image cairo_flush_ascii85_file } def
/cairo_imagemask { imagemask cairo_flush_ascii85_file } def
%%EndProlog
%%BeginSetup
%%EndSetup
%%Page: 1 1
%%BeginPageSetup
%%PageBoundingBox: 0 0 384 384
%%EndPageSetup
q 0 0 384 384 rectclip
1 0 0 -1 0 384 cm q
0 g
373.781 72.133 m 117.652 33.715 132.777 35.668 129.871 36.191 c 126.262
 36.84 133.289 32.719 36 97.578 c 36 44.77 l 43.168 40.613 48 32.863 48 
24 c 48 10.766 37.234 0 24 0 c 10.766 0 0 10.766 0 24 c 0 32.863 4.832 40.613
 12 44.77 c 12 372 l 12 378.629 17.371 384 24 384 c 30.629 384 36 378.629
 36 372 c 36 142.422 l 131.223 205.902 125.688 202.289 126.867 202.848 c
 128.16 203.461 129.621 203.84 130.984 203.953 c 133.164 204.137 116.602
 206.445 373.781 167.867 c 379.656 166.984 384 161.941 384 156 c 384 84 
l 384 78.059 379.656 73.016 373.781 72.133 c h
144 61.934 m 168 65.535 l 168 174.465 l 144 178.066 l h
192 69.133 m 216 72.734 l 216 167.266 l 192 170.867 l h
240 76.336 m 264 79.934 l 264 160.066 l 240 163.664 l h
288 83.535 m 312 87.133 l 312 152.867 l 288 156.465 l h
120 70.422 m 120 169.578 l 45.633 120 l h
360 145.664 m 336 149.266 l 336 90.734 l 360 94.336 l h
360 145.664 m f
Q Q
showpage
%%Trailer
end
%%EOF
