%!PS-Adobe-3.0 EPSF-3.0
%%Creator: cairo 1.16.0 (https://cairographics.org)
%%CreationDate: Tue Aug  4 10:00:39 2020
%%Pages: 1
%%DocumentData: Clean7Bit
%%LanguageLevel: 2
%%BoundingBox: 0 0 384 384
%%EndComments
%%BeginProlog
50 dict begin
/q { gsave } bind def
/Q { grestore } bind def
/cm { 6 array astore concat } bind def
/w { setlinewidth } bind def
/J { setlinecap } bind def
/j { setlinejoin } bind def
/M { setmiterlimit } bind def
/d { setdash } bind def
/m { moveto } bind def
/l { lineto } bind def
/c { curveto } bind def
/h { closepath } bind def
/re { exch dup neg 3 1 roll 5 3 roll moveto 0 rlineto
      0 exch rlineto 0 rlineto closepath } bind def
/S { stroke } bind def
/f { fill } bind def
/f* { eofill } bind def
/n { newpath } bind def
/W { clip } bind def
/W* { eoclip } bind def
/BT { } bind def
/ET { } bind def
/BDC { mark 3 1 roll /BDC pdfmark } bind def
/EMC { mark /EMC pdfmark } bind def
/cairo_store_point { /cairo_point_y exch def /cairo_point_x exch def } def
/Tj { show currentpoint cairo_store_point } bind def
/TJ {
  {
    dup
    type /stringtype eq
    { show } { -0.001 mul 0 cairo_font_matrix dtransform rmoveto } ifelse
  } forall
  currentpoint cairo_store_point
} bind def
/cairo_selectfont { cairo_font_matrix aload pop pop pop 0 0 6 array astore
    cairo_font exch selectfont cairo_point_x cairo_point_y moveto } bind def
/Tf { pop /cairo_font exch def /cairo_font_matrix where
      { pop cairo_selectfont } if } bind def
/Td { matrix translate cairo_font_matrix matrix concatmatrix dup
      /cairo_font_matrix exch def dup 4 get exch 5 get cairo_store_point
      /cairo_font where { pop cairo_selectfont } if } bind def
/Tm { 2 copy 8 2 roll 6 array astore /cairo_font_matrix exch def
      cairo_store_point /cairo_font where { pop cairo_selectfont } if } bind def
/g { setgray } bind def
/rg { setrgbcolor } bind def
/d1 { setcachedevice } bind def
/cairo_data_source {
  CairoDataIndex CairoData length lt
    { CairoData CairoDataIndex get /CairoDataIndex CairoDataIndex 1 add def }
    { () } ifelse
} def
/cairo_flush_ascii85_file { cairo_ascii85_file status { cairo_ascii85_file flushfile } if } def
/cairo_image { image cairo_flush_ascii85_file } def
/cairo_imagemask { imagemask cairo_flush_ascii85_file } def
%%EndProlog
%%BeginSetup
%%EndSetup
%%Page: 1 1
%%BeginPageSetup
%%PageBoundingBox: 0 0 384 384
%%EndPageSetup
q 0 0 384 384 rectclip
1 0 0 -1 0 384 cm q
0 g
329.723 121.605 m 330.449 73.535 284.199 37.73 237.375 51.648 c 223.078
 21.371 192.41 0 156.07 0 c 107.652 0 68.059 38.508 66.305 86.504 c 28.73
 94.676 0.375 128.141 0.375 168.422 c 0.375 214.648 37.984 252.258 84.211
 252.258 c 317.754 252.258 l 354.074 252.258 383.625 222.707 383.625 186.387
 c 383.625 154.148 360.352 127.25 329.723 121.605 c h
317.754 228.305 m 84.211 228.305 l 51.191 228.305 24.328 201.441 24.328
 168.422 c 24.328 137.363 48.547 111.141 79.469 108.723 c 86.098 108.207
 91.055 102.375 90.465 95.727 c 87.039 57.059 117.531 23.953 156.07 23.953
 c 184.852 23.953 210.781 43.172 219.117 70.691 c 221.281 77.832 229.398
 81.285 236.047 77.875 c 271.184 59.844 312.902 90.297 304.816 130.109 c
 303.312 137.516 308.977 144.469 316.555 144.469 c 342.535 144.469 359.672
 164.516 359.672 186.387 c 359.672 209.5 340.867 228.305 317.754 228.305
 c h
317.754 228.305 m f
192 270.223 m 185.387 270.223 180.023 275.586 180.023 282.199 c 180.023
 306.152 l 180.023 312.766 185.387 318.129 192 318.129 c 198.613 318.129
 203.977 312.766 203.977 306.152 c 203.977 282.199 l 203.977 275.586 198.613
 270.223 192 270.223 c h
192 270.223 m f
287.812 270.223 m 281.199 270.223 275.836 275.586 275.836 282.199 c 275.836
 306.152 l 275.836 312.766 281.199 318.129 287.812 318.129 c 294.426 318.129
 299.789 312.766 299.789 306.152 c 299.789 282.199 l 299.789 275.586 294.426
 270.223 287.812 270.223 c h
287.812 270.223 m f
96.188 270.223 m 89.574 270.223 84.211 275.586 84.211 282.199 c 84.211 
306.152 l 84.211 312.766 89.574 318.129 96.188 318.129 c 102.801 318.129
 108.164 312.766 108.164 306.152 c 108.164 282.199 l 108.164 275.586 102.801
 270.223 96.188 270.223 c h
96.188 270.223 m f
144.094 336.094 m 137.48 336.094 132.117 341.457 132.117 348.07 c 132.117
 372.023 l 132.117 378.637 137.48 384 144.094 384 c 150.707 384 156.07 378.637
 156.07 372.023 c 156.07 348.07 l 156.07 341.457 150.707 336.094 144.094
 336.094 c h
144.094 336.094 m f
239.906 336.094 m 233.293 336.094 227.93 341.457 227.93 348.07 c 227.93
 372.023 l 227.93 378.637 233.293 384 239.906 384 c 246.52 384 251.883 378.637
 251.883 372.023 c 251.883 348.07 l 251.883 341.457 246.52 336.094 239.906
 336.094 c h
239.906 336.094 m f
335.719 336.094 m 329.105 336.094 323.742 341.457 323.742 348.07 c 323.742
 372.023 l 323.742 378.637 329.105 384 335.719 384 c 342.332 384 347.695
 378.637 347.695 372.023 c 347.695 348.07 l 347.695 341.457 342.332 336.094
 335.719 336.094 c h
335.719 336.094 m f
48.281 336.094 m 41.668 336.094 36.305 341.457 36.305 348.07 c 36.305 372.023
 l 36.305 378.637 41.668 384 48.281 384 c 54.895 384 60.258 378.637 60.258
 372.023 c 60.258 348.07 l 60.258 341.457 54.895 336.094 48.281 336.094 
c h
48.281 336.094 m f
Q Q
showpage
%%Trailer
end
%%EOF
