%!PS-Adobe-3.0 EPSF-3.0
%%Creator: cairo 1.16.0 (https://cairographics.org)
%%CreationDate: Tue Aug  4 10:00:40 2020
%%Pages: 1
%%DocumentData: Clean7Bit
%%LanguageLevel: 2
%%BoundingBox: 0 0 384 384
%%EndComments
%%BeginProlog
50 dict begin
/q { gsave } bind def
/Q { grestore } bind def
/cm { 6 array astore concat } bind def
/w { setlinewidth } bind def
/J { setlinecap } bind def
/j { setlinejoin } bind def
/M { setmiterlimit } bind def
/d { setdash } bind def
/m { moveto } bind def
/l { lineto } bind def
/c { curveto } bind def
/h { closepath } bind def
/re { exch dup neg 3 1 roll 5 3 roll moveto 0 rlineto
      0 exch rlineto 0 rlineto closepath } bind def
/S { stroke } bind def
/f { fill } bind def
/f* { eofill } bind def
/n { newpath } bind def
/W { clip } bind def
/W* { eoclip } bind def
/BT { } bind def
/ET { } bind def
/BDC { mark 3 1 roll /BDC pdfmark } bind def
/EMC { mark /EMC pdfmark } bind def
/cairo_store_point { /cairo_point_y exch def /cairo_point_x exch def } def
/Tj { show currentpoint cairo_store_point } bind def
/TJ {
  {
    dup
    type /stringtype eq
    { show } { -0.001 mul 0 cairo_font_matrix dtransform rmoveto } ifelse
  } forall
  currentpoint cairo_store_point
} bind def
/cairo_selectfont { cairo_font_matrix aload pop pop pop 0 0 6 array astore
    cairo_font exch selectfont cairo_point_x cairo_point_y moveto } bind def
/Tf { pop /cairo_font exch def /cairo_font_matrix where
      { pop cairo_selectfont } if } bind def
/Td { matrix translate cairo_font_matrix matrix concatmatrix dup
      /cairo_font_matrix exch def dup 4 get exch 5 get cairo_store_point
      /cairo_font where { pop cairo_selectfont } if } bind def
/Tm { 2 copy 8 2 roll 6 array astore /cairo_font_matrix exch def
      cairo_store_point /cairo_font where { pop cairo_selectfont } if } bind def
/g { setgray } bind def
/rg { setrgbcolor } bind def
/d1 { setcachedevice } bind def
/cairo_data_source {
  CairoDataIndex CairoData length lt
    { CairoData CairoDataIndex get /CairoDataIndex CairoDataIndex 1 add def }
    { () } ifelse
} def
/cairo_flush_ascii85_file { cairo_ascii85_file status { cairo_ascii85_file flushfile } if } def
/cairo_image { image cairo_flush_ascii85_file } def
/cairo_imagemask { imagemask cairo_flush_ascii85_file } def
%%EndProlog
%%BeginSetup
%%EndSetup
%%Page: 1 1
%%BeginPageSetup
%%PageBoundingBox: 0 0 384 384
%%EndPageSetup
q 0 0 384 384 rectclip
1 0 0 -1 0 384 cm q
0 g
336.465 75.348 m 313.348 45.684 290.422 27.363 289.457 26.598 c 285.09 
23.133 278.91 23.133 274.543 26.598 c 261.43 37 241.223 57.25 225.082 78.547
 c 189.898 32.539 153.031 3.812 151.336 2.504 c 147.016 -0.836 140.984 -0.836
 136.664 2.504 c 135.27 3.582 102.141 29.363 68.629 71.254 c 29.832 119.75
 0 178.168 0 240 c 0 319.402 64.598 384 144 384 c 202.336 384 252.453 349.344
 275.051 299.754 c 334.473 303.863 384 255.434 384 195.602 c 384 156.84 
367.562 115.258 336.465 75.348 c h
144 360 m 77.832 360 24 306.168 24 240 c 24 159.668 83.688 79.25 144.004
 27.562 c 156.98 38.676 185.02 64.406 210.707 99.387 c 190.547 131.727 180
 164.566 180 195.602 c 180 241.992 209.723 281.406 250.695 294.965 c 230.309
 334.352 188.988 360 144 360 c h
282 276 m 238.992 276 204 239.934 204 195.602 c 204 128.816 261.18 70.785
 282 51.875 c 302.824 70.793 360 128.82 360 195.602 c 360 239.934 325.008
 276 282 276 c h
282 276 m f
Q Q
showpage
%%Trailer
end
%%EOF
