%!PS-Adobe-3.0 EPSF-3.0
%%Creator: cairo 1.16.0 (https://cairographics.org)
%%CreationDate: Tue Aug  4 10:00:41 2020
%%Pages: 1
%%DocumentData: Clean7Bit
%%LanguageLevel: 2
%%BoundingBox: 12 0 372 384
%%EndComments
%%BeginProlog
50 dict begin
/q { gsave } bind def
/Q { grestore } bind def
/cm { 6 array astore concat } bind def
/w { setlinewidth } bind def
/J { setlinecap } bind def
/j { setlinejoin } bind def
/M { setmiterlimit } bind def
/d { setdash } bind def
/m { moveto } bind def
/l { lineto } bind def
/c { curveto } bind def
/h { closepath } bind def
/re { exch dup neg 3 1 roll 5 3 roll moveto 0 rlineto
      0 exch rlineto 0 rlineto closepath } bind def
/S { stroke } bind def
/f { fill } bind def
/f* { eofill } bind def
/n { newpath } bind def
/W { clip } bind def
/W* { eoclip } bind def
/BT { } bind def
/ET { } bind def
/BDC { mark 3 1 roll /BDC pdfmark } bind def
/EMC { mark /EMC pdfmark } bind def
/cairo_store_point { /cairo_point_y exch def /cairo_point_x exch def } def
/Tj { show currentpoint cairo_store_point } bind def
/TJ {
  {
    dup
    type /stringtype eq
    { show } { -0.001 mul 0 cairo_font_matrix dtransform rmoveto } ifelse
  } forall
  currentpoint cairo_store_point
} bind def
/cairo_selectfont { cairo_font_matrix aload pop pop pop 0 0 6 array astore
    cairo_font exch selectfont cairo_point_x cairo_point_y moveto } bind def
/Tf { pop /cairo_font exch def /cairo_font_matrix where
      { pop cairo_selectfont } if } bind def
/Td { matrix translate cairo_font_matrix matrix concatmatrix dup
      /cairo_font_matrix exch def dup 4 get exch 5 get cairo_store_point
      /cairo_font where { pop cairo_selectfont } if } bind def
/Tm { 2 copy 8 2 roll 6 array astore /cairo_font_matrix exch def
      cairo_store_point /cairo_font where { pop cairo_selectfont } if } bind def
/g { setgray } bind def
/rg { setrgbcolor } bind def
/d1 { setcachedevice } bind def
/cairo_data_source {
  CairoDataIndex CairoData length lt
    { CairoData CairoDataIndex get /CairoDataIndex CairoDataIndex 1 add def }
    { () } ifelse
} def
/cairo_flush_ascii85_file { cairo_ascii85_file status { cairo_ascii85_file flushfile } if } def
/cairo_image { image cairo_flush_ascii85_file } def
/cairo_imagemask { imagemask cairo_flush_ascii85_file } def
%%EndProlog
%%BeginSetup
%%EndSetup
%%Page: 1 1
%%BeginPageSetup
%%PageBoundingBox: 12 0 372 384
%%EndPageSetup
q 12 0 360 384 rectclip
1 0 0 -1 0 384 cm q
0 g
46.258 361.734 m 48.602 364.078 51.672 365.25 54.742 365.25 c 65.336 365.25
 70.812 352.348 63.227 344.766 c 53.715 335.25 l 161.992 335.25 l 161.992
 372 l 161.992 378.629 167.363 384 173.992 384 c 180.621 384 185.992 378.629
 185.992 372 c 185.992 335.25 l 258.27 335.25 l 284.754 361.734 l 287.004
 363.984 290.059 365.25 293.238 365.25 c 359.238 365.25 l 369.922 365.25
 375.258 352.301 367.723 344.766 c 346.211 323.25 l 367.723 301.738 l 375.273
 294.184 369.895 281.25 359.238 281.25 c 293.238 281.25 l 290.059 281.25
 287.004 282.516 284.754 284.766 c 258.27 311.25 l 185.992 311.25 l 185.992
 293.449 l 253.172 287.367 305.988 230.742 305.988 162.004 c 305.988 147.93
 l 321.941 138.68 333.254 122.305 335.547 103.18 c 356.953 94.008 371.988
 72.73 371.988 48.004 c 371.988 41.379 366.617 36.004 359.988 36.004 c 299.988
 36.004 l 266.906 36.004 239.992 62.922 239.992 96.004 c 239.992 132.004
 l 231.863 132.004 159.254 132.004 149.992 132.004 c 149.992 101.496 l 166.996
 98.629 179.992 83.809 179.992 66.004 c 179.992 52.969 172.836 41.152 161.973
 34.836 c 161.102 7.582 131.332 -8.648 107.992 4.836 c 84.246 -8.883 53.992
 8.176 53.992 36.004 c 53.992 41.598 55.305 47.039 57.73 51.945 c 48.48 
61.238 42.598 73.875 42.051 87.859 c 19.539 96.863 l 9.508 100.875 9.5 115.129
 19.539 119.145 c 41.992 128.129 l 41.992 162.004 l 41.992 230.742 94.812
 287.367 161.992 293.449 c 161.992 311.25 l 53.715 311.25 l 63.23 301.734
 l 67.914 297.051 67.914 289.453 63.23 284.766 c 58.543 280.078 50.945 280.078
 46.258 284.766 c 14.891 316.137 14.734 315.641 13.461 319.203 c 12.207 
322.691 12.602 326.68 14.766 329.914 c 15.707 331.32 14.676 330.152 46.258
 361.734 c h
148.434 77.145 m 140.902 46.445 108.465 28.559 78.383 38.973 c 75.227 26.637
 90.789 18.773 98.988 28.078 c 103.766 33.496 112.223 33.496 116.996 28.078
 c 125.305 18.645 141.023 26.855 137.531 39.312 c 135.668 45.949 139.777
 52.82 146.555 54.285 c 152.023 55.465 155.992 60.395 155.992 66.004 c 155.992
 71.051 152.855 75.375 148.434 77.145 c h
239.352 156.004 m 234.969 186.492 208.676 210.004 176.992 210.004 c 162.105
 210.004 149.992 197.891 149.992 183.004 c 149.992 168.113 162.105 156.004
 176.992 156.004 c h
311.988 84.004 m 266.047 84.004 l 271 70.035 284.344 60.004 299.988 60.004
 c 345.934 60.004 l 340.98 73.973 327.633 84.004 311.988 84.004 c h
309.934 108.004 m 304.98 121.973 291.637 132.004 275.992 132.004 c 263.992
 132.004 l 263.992 108.004 l h
173.992 270 m 114.441 270 65.992 221.555 65.992 162.004 c 65.992 143.457
 65.992 103.629 65.992 90.004 c 65.992 73.461 79.453 60.004 95.992 60.004
 c 112.535 60.004 125.992 73.461 125.992 90.004 c 125.992 144.004 l 125.992
 149.289 129.414 153.77 134.164 155.367 c 112.434 188.93 136.465 234.004
 176.992 234.004 c 221.926 234.004 259.008 199.762 263.527 156.004 c 281.992
 156.004 l 281.992 162.004 l 281.992 221.555 233.543 270 173.992 270 c h
280.211 323.25 m 298.211 305.25 l 330.27 305.25 l 320.754 314.766 l 316.066
 319.453 316.066 327.051 320.754 331.734 c 330.27 341.25 l 298.211 341.25
 l h
280.211 323.25 m f
Q Q
showpage
%%Trailer
end
%%EOF
