%!PS-Adobe-3.0 EPSF-3.0
%%Creator: cairo 1.16.0 (https://cairographics.org)
%%CreationDate: Tue Aug  4 10:00:43 2020
%%Pages: 1
%%DocumentData: Clean7Bit
%%LanguageLevel: 2
%%BoundingBox: 0 0 384 384
%%EndComments
%%BeginProlog
50 dict begin
/q { gsave } bind def
/Q { grestore } bind def
/cm { 6 array astore concat } bind def
/w { setlinewidth } bind def
/J { setlinecap } bind def
/j { setlinejoin } bind def
/M { setmiterlimit } bind def
/d { setdash } bind def
/m { moveto } bind def
/l { lineto } bind def
/c { curveto } bind def
/h { closepath } bind def
/re { exch dup neg 3 1 roll 5 3 roll moveto 0 rlineto
      0 exch rlineto 0 rlineto closepath } bind def
/S { stroke } bind def
/f { fill } bind def
/f* { eofill } bind def
/n { newpath } bind def
/W { clip } bind def
/W* { eoclip } bind def
/BT { } bind def
/ET { } bind def
/BDC { mark 3 1 roll /BDC pdfmark } bind def
/EMC { mark /EMC pdfmark } bind def
/cairo_store_point { /cairo_point_y exch def /cairo_point_x exch def } def
/Tj { show currentpoint cairo_store_point } bind def
/TJ {
  {
    dup
    type /stringtype eq
    { show } { -0.001 mul 0 cairo_font_matrix dtransform rmoveto } ifelse
  } forall
  currentpoint cairo_store_point
} bind def
/cairo_selectfont { cairo_font_matrix aload pop pop pop 0 0 6 array astore
    cairo_font exch selectfont cairo_point_x cairo_point_y moveto } bind def
/Tf { pop /cairo_font exch def /cairo_font_matrix where
      { pop cairo_selectfont } if } bind def
/Td { matrix translate cairo_font_matrix matrix concatmatrix dup
      /cairo_font_matrix exch def dup 4 get exch 5 get cairo_store_point
      /cairo_font where { pop cairo_selectfont } if } bind def
/Tm { 2 copy 8 2 roll 6 array astore /cairo_font_matrix exch def
      cairo_store_point /cairo_font where { pop cairo_selectfont } if } bind def
/g { setgray } bind def
/rg { setrgbcolor } bind def
/d1 { setcachedevice } bind def
/cairo_data_source {
  CairoDataIndex CairoData length lt
    { CairoData CairoDataIndex get /CairoDataIndex CairoDataIndex 1 add def }
    { () } ifelse
} def
/cairo_flush_ascii85_file { cairo_ascii85_file status { cairo_ascii85_file flushfile } if } def
/cairo_image { image cairo_flush_ascii85_file } def
/cairo_imagemask { imagemask cairo_flush_ascii85_file } def
%%EndProlog
%%BeginSetup
%%EndSetup
%%Page: 1 1
%%BeginPageSetup
%%PageBoundingBox: 0 0 384 384
%%EndPageSetup
q 0 0 384 384 rectclip
1 0 0 -1 0 384 cm q
0 g
296.246 163.879 m 288.867 136.68 270.984 112.906 246.008 98.461 c 229.648
 89 210.973 84 192 84 c 132.449 84 84 132.449 84 192 c 84 251.551 132.449
 300 192 300 c 263.043 300 314.789 232.223 296.246 163.879 c h
108 192 m 108 135.902 162.18 95.465 216.031 111.508 c 168.023 154.574 168.035
 229.434 216.031 272.492 c 162.051 288.57 108 247.961 108 192 c h
239.992 260.934 m 192.109 227.484 192.031 156.57 239.992 123.066 c 288.336
 156.871 287.457 227.797 239.992 260.934 c h
239.992 260.934 m f
192 60 m 198.629 60 204 54.629 204 48 c 204 12 l 204 5.371 198.629 0 192
 0 c 185.371 0 180 5.371 180 12 c 180 48 l 180 54.629 185.371 60 192 60 
c h
192 60 m f
192 324 m 185.371 324 180 329.371 180 336 c 180 372 l 180 378.629 185.371
 384 192 384 c 198.629 384 204 378.629 204 372 c 204 336 l 204 329.371 198.629
 324 192 324 c h
192 324 m f
372 180 m 336 180 l 329.371 180 324 185.371 324 192 c 324 198.629 329.371
 204 336 204 c 372 204 l 378.629 204 384 198.629 384 192 c 384 185.371 378.629
 180 372 180 c h
372 180 m f
60 192 m 60 185.371 54.629 180 48 180 c 12 180 l 5.371 180 0 185.371 0 
192 c 0 198.629 5.371 204 12 204 c 48 204 l 54.629 204 60 198.629 60 192
 c h
60 192 m f
293.824 102.176 m 296.895 102.176 299.965 101.004 302.309 98.66 c 327.766
 73.207 l 332.449 68.52 332.449 60.922 327.766 56.234 c 323.078 51.551 315.48
 51.551 310.793 56.234 c 285.34 81.691 l 277.758 89.273 283.23 102.176 293.824
 102.176 c h
293.824 102.176 m f
81.691 285.34 m 56.234 310.793 l 51.547 315.48 51.547 323.078 56.234 327.766
 c 60.918 332.449 68.52 332.449 73.207 327.766 c 98.66 302.309 l 103.348
 297.621 103.348 290.023 98.66 285.34 c 93.977 280.652 86.379 280.652 81.691
 285.34 c h
81.691 285.34 m f
302.309 285.34 m 297.621 280.652 290.023 280.652 285.34 285.34 c 280.652
 290.023 280.652 297.621 285.34 302.309 c 310.793 327.766 l 313.137 330.105
 316.207 331.277 319.277 331.277 c 329.875 331.277 335.344 318.375 327.762
 310.793 c h
302.309 285.34 m f
81.691 98.66 m 86.379 103.348 93.977 103.348 98.66 98.66 c 103.348 93.977
 103.348 86.379 98.66 81.691 c 73.207 56.234 l 68.52 51.551 60.922 51.547
 56.234 56.234 c 51.547 60.922 51.547 68.52 56.234 73.207 c h
81.691 98.66 m f
Q Q
showpage
%%Trailer
end
%%EOF
