%!PS-Adobe-3.0 EPSF-3.0
%%Creator: cairo 1.16.0 (https://cairographics.org)
%%CreationDate: Tue Aug  4 10:00:44 2020
%%Pages: 1
%%DocumentData: Clean7Bit
%%LanguageLevel: 2
%%BoundingBox: 22 0 362 384
%%EndComments
%%BeginProlog
50 dict begin
/q { gsave } bind def
/Q { grestore } bind def
/cm { 6 array astore concat } bind def
/w { setlinewidth } bind def
/J { setlinecap } bind def
/j { setlinejoin } bind def
/M { setmiterlimit } bind def
/d { setdash } bind def
/m { moveto } bind def
/l { lineto } bind def
/c { curveto } bind def
/h { closepath } bind def
/re { exch dup neg 3 1 roll 5 3 roll moveto 0 rlineto
      0 exch rlineto 0 rlineto closepath } bind def
/S { stroke } bind def
/f { fill } bind def
/f* { eofill } bind def
/n { newpath } bind def
/W { clip } bind def
/W* { eoclip } bind def
/BT { } bind def
/ET { } bind def
/BDC { mark 3 1 roll /BDC pdfmark } bind def
/EMC { mark /EMC pdfmark } bind def
/cairo_store_point { /cairo_point_y exch def /cairo_point_x exch def } def
/Tj { show currentpoint cairo_store_point } bind def
/TJ {
  {
    dup
    type /stringtype eq
    { show } { -0.001 mul 0 cairo_font_matrix dtransform rmoveto } ifelse
  } forall
  currentpoint cairo_store_point
} bind def
/cairo_selectfont { cairo_font_matrix aload pop pop pop 0 0 6 array astore
    cairo_font exch selectfont cairo_point_x cairo_point_y moveto } bind def
/Tf { pop /cairo_font exch def /cairo_font_matrix where
      { pop cairo_selectfont } if } bind def
/Td { matrix translate cairo_font_matrix matrix concatmatrix dup
      /cairo_font_matrix exch def dup 4 get exch 5 get cairo_store_point
      /cairo_font where { pop cairo_selectfont } if } bind def
/Tm { 2 copy 8 2 roll 6 array astore /cairo_font_matrix exch def
      cairo_store_point /cairo_font where { pop cairo_selectfont } if } bind def
/g { setgray } bind def
/rg { setrgbcolor } bind def
/d1 { setcachedevice } bind def
/cairo_data_source {
  CairoDataIndex CairoData length lt
    { CairoData CairoDataIndex get /CairoDataIndex CairoDataIndex 1 add def }
    { () } ifelse
} def
/cairo_flush_ascii85_file { cairo_ascii85_file status { cairo_ascii85_file flushfile } if } def
/cairo_image { image cairo_flush_ascii85_file } def
/cairo_imagemask { imagemask cairo_flush_ascii85_file } def
%%EndProlog
%%BeginSetup
%%EndSetup
%%Page: 1 1
%%BeginPageSetup
%%PageBoundingBox: 22 0 362 384
%%EndPageSetup
q 22 0 340 384 rectclip
1 0 0 -1 0 384 cm q
0 g
325.41 255.215 m 300.953 241.094 l 330.344 233.219 l 336.746 231.504 340.547
 224.922 338.828 218.523 c 337.113 212.121 330.543 208.32 324.133 210.035
 c 271.562 224.125 l 243.52 207.934 l 246.727 197.574 246.754 186.297 243.418
 175.746 c 271.555 159.5 l 328.359 174.723 324.996 174 327.246 174 c 332.543
 174 337.395 170.465 338.828 165.105 c 340.547 158.703 336.746 152.121 330.344
 150.406 c 300.949 142.531 l 325.41 128.41 l 329.164 130.57 333.352 131.637
 337.453 131.637 c 355.715 131.637 367.465 111.672 358.199 95.625 c 351.57
 84.137 336.906 80.207 325.414 86.84 c 317.738 91.273 313.445 99.332 313.426
 107.617 c 288.957 121.746 l 296.832 92.359 l 298.547 85.957 294.746 79.379
 288.348 77.66 c 281.945 75.945 275.363 79.746 273.648 86.148 c 259.562 
138.715 l 231.254 155.059 l 224.023 147.363 214.57 141.789 203.926 139.359
 c 203.926 106.223 l 242.41 67.738 l 247.098 63.051 247.098 55.453 242.41
 50.766 c 237.723 46.078 230.125 46.078 225.441 50.766 c 203.922 72.281 
l 203.922 44.773 l 211.09 40.617 215.922 32.863 215.922 24 c 215.922 10.766
 205.156 0 191.922 0 c 178.691 0 167.922 10.766 167.922 24 c 167.922 32.863
 172.758 40.617 179.922 44.773 c 179.922 72.281 l 158.406 50.766 l 153.723
 46.078 146.125 46.078 141.438 50.766 c 136.75 55.453 136.75 63.051 141.438
 67.734 c 179.922 106.223 l 179.922 139.359 l 169.164 141.812 159.617 147.477
 152.355 155.301 c 123.637 138.719 l 109.551 86.148 l 107.836 79.746 101.258
 75.945 94.852 77.66 c 88.449 79.379 84.652 85.957 86.367 92.359 c 94.242
 121.75 l 70.418 107.992 l 70.387 92.305 55.582 80.703 40.219 84.82 c 19.613
 90.34 16.039 118.168 34.43 128.785 c 42.172 133.254 51.266 132.914 58.434
 128.789 c 82.242 142.535 l 52.852 150.41 l 46.449 152.125 42.652 158.703
 44.367 165.105 c 46.074 171.477 52.633 175.316 59.062 173.59 c 111.637 
159.504 l 140.324 176.066 l 137.215 186.117 137.059 197.133 140.23 207.613
 c 111.637 224.125 l 59.062 210.035 l 52.664 208.32 46.082 212.121 44.367
 218.523 c 42.652 224.922 46.449 231.504 52.852 233.219 c 82.242 241.094
 l 58.434 254.84 l 51.227 250.691 42.133 250.395 34.43 254.84 c 16.027 265.465
 19.621 293.289 40.219 298.809 c 55.504 302.902 70.387 291.371 70.418 275.633
 c 94.242 261.879 l 86.367 291.27 l 84.652 297.668 88.449 304.25 94.852 
305.965 c 101.281 307.688 107.84 303.852 109.547 297.48 c 123.637 244.906
 l 152.129 228.457 l 159.418 236.406 169.051 242.164 179.922 244.641 c 179.922
 277.031 l 141.438 315.516 l 136.75 320.203 136.75 327.801 141.438 332.484
 c 146.121 337.172 153.723 337.172 158.406 332.484 c 179.922 310.973 l 179.922
 339.23 l 172.754 343.387 167.922 351.137 167.922 360 c 167.922 373.234 
178.688 384 191.922 384 c 205.156 384 215.922 373.234 215.922 360 c 215.922
 351.137 211.086 343.387 203.922 339.23 c 203.922 310.973 l 225.438 332.484
 l 227.781 334.828 230.852 336 233.922 336 c 244.516 336 249.988 323.098
 242.406 315.516 c 203.922 277.031 l 203.922 244.641 l 214.68 242.188 224.223
 236.523 231.484 228.699 c 259.559 244.91 l 273.648 297.48 l 275.082 302.844
 279.93 306.379 285.23 306.379 c 293.121 306.379 298.871 298.887 296.828
 291.27 c 288.953 261.883 l 313.426 276.012 l 313.453 289.5 324.422 300.012
 337.375 300.012 c 345.582 300.012 353.695 295.805 358.199 288.004 c 370.336
 266.98 346.773 242.922 325.41 255.215 c h
191.922 222 m 175.379 222 161.922 208.543 161.922 192 c 161.922 175.457
 175.379 162 191.922 162 c 208.465 162 221.922 175.457 221.922 192 c 221.922
 208.543 208.465 222 191.922 222 c h
191.922 222 m f
Q Q
showpage
%%Trailer
end
%%EOF
